"臺北捷運公司運量統計表"
"營運日","星期","總 運 量"
"101/9/1","六","1,556,794"
"101/9/2","日","1,307,178"
"101/9/3","一","1,630,336"
"101/9/4","二","1,651,629"
"101/9/5","三","1,686,628"
"101/9/6","四","1,686,923"
"101/9/7","五","1,814,263"
"101/9/8","六","1,632,359"
"101/9/9","日","1,369,673"
"101/9/10","一","1,654,221"
"101/9/11","二","1,671,012"
"101/9/12","三","1,694,150"
"101/9/13","四","1,684,604"
"101/9/14","五","1,806,856"
"101/9/15","六","1,533,784"
"101/9/16","日","1,381,447"
"101/9/17","一","1,655,933"
"101/9/18","二","1,674,705"
"101/9/19","三","1,704,377"
"101/9/20","四","1,705,507"
"101/9/21","五","1,871,210"
"101/9/22","六","1,716,829"
"101/9/23","日","1,410,097"
"101/9/24","一","1,637,404"
"101/9/25","二","1,681,562"
"101/9/26","三","1,710,326"
"101/9/27","四","1,700,923"
"101/9/28","五","1,841,120"
"101/9/29","六","1,452,404"
"101/9/30","日","1,271,370"
"","",""
"當月總計","48,795,624"
"日平均","1,626,521"
"","","單位：人次"
"","",""
""
"","",""

