"臺北捷運公司運量統計表"
"營運日","星期","總 運 量"
"101/1/1","日","1,265,122"
"101/1/2","一","1,552,255"
"101/1/3","二","1,566,982"
"101/1/4","三","1,581,600"
"101/1/5","四","1,674,320"
"101/1/6","五","1,876,353"
"101/1/7","六","1,635,411"
"101/1/8","日","1,383,264"
"101/1/9","一","1,615,969"
"101/1/10","二","1,648,209"
"101/1/11","三","1,669,140"
"101/1/12","四","1,705,551"
"101/1/13","五","1,941,644"
"101/1/14","六","1,518,673"
"101/1/15","日","1,368,459"
"101/1/16","一","1,759,703"
"101/1/17","二","1,822,462"
"101/1/18","三","1,841,918"
"101/1/19","四","1,775,902"
"101/1/20","五","1,728,153"
"101/1/21","六","1,044,600"
"101/1/22","日","553,099"
"101/1/23","一","1,017,719"
"101/1/24","二","936,131"
"101/1/25","三","1,246,885"
"101/1/26","四","1,335,047"
"101/1/27","五","1,629,629"
"101/1/28","六","1,609,206"
"101/1/29","日","1,310,268"
"101/1/30","一","1,619,820"
"101/1/31","二","1,677,030"
"當月總計","46,910,524"
"日平均","1,513,243"
"","","單位：人次"
"","",""
""
"","",""

