"臺北捷運公司運量統計表"
"營運日","星期","總 運 量"
"102/4/1","一","1,750,922"
"102/4/2","二","1,784,274"
"102/4/3","三","1,900,403"
"102/4/4","四","1,299,890"
"102/4/5","五","1,337,680"
"102/4/6","六","1,435,312"
"102/4/7","日","1,446,054"
"102/4/8","一","1,682,442"
"102/4/9","二","1,739,489"
"102/4/10","三","1,757,287"
"102/4/11","四","1,764,385"
"102/4/12","五","1,924,107"
"102/4/13","六","1,666,700"
"102/4/14","日","1,317,237"
"102/4/15","一","1,690,178"
"102/4/16","二","1,708,095"
"102/4/17","三","1,729,902"
"102/4/18","四","1,729,987"
"102/4/19","五","1,945,207"
"102/4/20","六","1,682,226"
"102/4/21","日","1,454,909"
"102/4/22","一","1,683,324"
"102/4/23","二","1,723,486"
"102/4/24","三","1,756,104"
"102/4/25","四","1,753,582"
"102/4/26","五","1,940,270"
"102/4/27","六","1,703,794"
"102/4/28","日","1,468,731"
"102/4/29","一","1,723,651"
"102/4/30","二","1,770,350"
"","",""
"當月總計","50,269,978"
"日平均","1,675,666"
"","","單位：人次"
"","",""
""
"","",""

