"臺北捷運公司運量統計表"
"營運日","星期","總 運 量"
"102/7/1","一","1,726,527"
"102/7/2","二","1,748,691"
"102/7/3","三","1,781,329"
"102/7/4","四","1,800,526"
"102/7/5","五","1,899,274"
"102/7/6","六","1,660,776"
"102/7/7","日","1,483,814"
"102/7/8","一","1,784,259"
"102/7/9","二","1,808,794"
"102/7/10","三","1,825,223"
"102/7/11","四","1,818,154"
"102/7/12","五","1,428,449"
"102/7/13","六","809,170"
"102/7/14","日","1,448,933"
"102/7/15","一","1,758,851"
"102/7/16","二","1,821,881"
"102/7/17","三","1,831,685"
"102/7/18","四","1,810,491"
"102/7/19","五","1,922,285"
"102/7/20","六","1,772,574"
"102/7/21","日","1,495,595"
"102/7/22","一","1,735,174"
"102/7/23","二","1,778,472"
"102/7/24","三","1,786,339"
"102/7/25","四","1,783,898"
"102/7/26","五","1,905,769"
"102/7/27","六","1,725,770"
"102/7/28","日","1,503,908"
"102/7/29","一","1,748,340"
"102/7/30","二","1,767,464"
"102/7/31","三","1,777,362"
"當月總計","52,949,777"
"日平均","1,708,057"
"","","單位：人次"
"","",""
""
"","",""

