"臺北捷運公司運量統計表"
"營運日","星期","總 運 量"
"102/10/1","二","1,787,959"
"102/10/2","三","1,818,100"
"102/10/3","四","1,832,765"
"102/10/4","五","1,994,240"
"102/10/5","六","1,629,200"
"102/10/6","日","1,180,197"
"102/10/7","一","1,779,498"
"102/10/8","二","1,812,219"
"102/10/9","三","1,956,830"
"102/10/10","四","1,591,813"
"102/10/11","五","1,912,939"
"102/10/12","六","1,668,801"
"102/10/13","日","1,453,478"
"102/10/14","一","1,747,548"
"102/10/15","二","1,795,551"
"102/10/16","三","1,829,102"
"102/10/17","四","1,827,796"
"102/10/18","五","1,999,246"
"102/10/19","六","1,854,249"
"102/10/20","日","1,596,789"
"102/10/21","一","1,771,349"
"102/10/22","二","1,779,914"
"102/10/23","三","1,818,638"
"102/10/24","四","1,808,672"
"102/10/25","五","1,987,564"
"102/10/26","六","1,827,210"
"102/10/27","日","1,478,359"
"102/10/28","一","1,742,827"
"102/10/29","二","1,775,651"
"102/10/30","三","1,798,729"
"102/10/31","四","1,794,940"
"當月總計","54,652,173"
"日平均","1,762,973"
"","","單位：人次"
"","",""
""
"","",""

