"臺北捷運公司運量統計表"
"營運日","星期","總 運 量"
"103/2/1","六","1,309,134"
"103/2/2","日","1,562,765"
"103/2/3","一","1,619,800"
"103/2/4","二","1,522,066"
"103/2/5","三","1,828,468"
"103/2/6","四","1,999,081"
"103/2/7","五","2,125,325"
"103/2/8","六","1,909,020"
"103/2/9","日","1,404,875"
"103/2/10","一","1,920,394"
"103/2/11","二","1,914,946"
"103/2/12","三","1,955,062"
"103/2/13","四","1,979,903"
"103/2/14","五","2,155,150"
"103/2/15","六","1,917,231"
"103/2/16","日","1,755,170"
"103/2/17","一","1,902,483"
"103/2/18","二","1,931,340"
"103/2/19","三","1,920,043"
"103/2/20","四","1,950,177"
"103/2/21","五","2,134,328"
"103/2/22","六","2,017,828"
"103/2/23","日","1,729,267"
"103/2/24","一","1,876,062"
"103/2/25","二","1,910,791"
"103/2/26","三","1,920,046"
"103/2/27","四","2,069,033"
"103/2/28","五","1,960,552"
"","",""
"","",""
"","",""
"當月總計","52,200,340"
"日平均","1,864,298"
"","","單位：人次"
"","",""
""
"","",""

