"臺北捷運公司運量統計表"
"營運日","星期","總 運 量"
"103/9/1","一","1,792,432"
"103/9/2","二","1,815,094"
"103/9/3","三","1,857,499"
"103/9/4","四","1,847,636"
"103/9/5","五","1,992,083"
"103/9/6","六","1,536,574"
"103/9/7","日","1,331,758"
"103/9/8","一","1,187,628"
"103/9/9","二","1,814,962"
"103/9/10","三","1,867,537"
"103/9/11","四","1,901,832"
"103/9/12","五","2,033,751"
"103/9/13","六","1,847,011"
"103/9/14","日","1,557,312"
"103/9/15","一","1,840,143"
"103/9/16","二","1,846,238"
"103/9/17","三","1,867,894"
"103/9/18","四","1,876,212"
"103/9/19","五","2,054,464"
"103/9/20","六","1,761,956"
"103/9/21","日","1,125,645"
"103/9/22","一","1,829,671"
"103/9/23","二","1,856,790"
"103/9/24","三","1,889,368"
"103/9/25","四","1,914,494"
"103/9/26","五","2,096,684"
"103/9/27","六","1,893,048"
"103/9/28","日","1,601,299"
"103/9/29","一","1,858,825"
"103/9/30","二","1,892,339"
"","",""
"當月總計","53,588,179"
"日平均","1,786,273"
"","","單位：人次"
"","",""

