"臺北捷運公司運量統計表"
"營運日","星期","總 運 量"
"85/3/1","五",""
"85/3/2","六",""
"85/3/3","日",""
"85/3/4","一",""
"85/3/5","二",""
"85/3/6","三",""
"85/3/7","四",""
"85/3/8","五",""
"85/3/9","六",""
"85/3/10","日",""
"85/3/11","一",""
"85/3/12","二",""
"85/3/13","三",""
"85/3/14","四",""
"85/3/15","五",""
"85/3/16","六",""
"85/3/17","日",""
"85/3/18","一",""
"85/3/19","二",""
"85/3/20","三",""
"85/3/21","四",""
"85/3/22","五",""
"85/3/23","六",""
"85/3/24","日",""
"85/3/25","一",""
"85/3/26","二",""
"85/3/27","三",""
"85/3/28","四","42,548"
"85/3/29","五","104,443"
"85/3/30","六","98,792"
"85/3/31","日","84,931"
"","",""
"當月總計","330,714"
"日平均","82,679"
"","","單位：人次"
"","",""
""
"","",""

