"臺北捷運公司運量統計表"
"營運日","星期","總 運 量"
"85/10/1","二","38,401"
"85/10/2","三","39,069"
"85/10/3","四","39,685"
"85/10/4","五","39,511"
"85/10/5","六","42,023"
"85/10/6","日","40,337"
"85/10/7","一","37,692"
"85/10/8","二","36,819"
"85/10/9","三","41,966"
"85/10/10","四","27,962"
"85/10/11","五","39,263"
"85/10/12","六","37,687"
"85/10/13","日","30,502"
"85/10/14","一","40,143"
"85/10/15","二","41,803"
"85/10/16","三","44,277"
"85/10/17","四","39,746"
"85/10/18","五","39,714"
"85/10/19","六","41,096"
"85/10/20","日","28,797"
"85/10/21","一","43,272"
"85/10/22","二","41,847"
"85/10/23","三","42,075"
"85/10/24","四","41,639"
"85/10/25","五","56,345"
"85/10/26","六","48,085"
"85/10/27","日","49,721"
"85/10/28","一","38,322"
"85/10/29","二","39,869"
"85/10/30","三","41,522"
"85/10/31","四","47,733"
"","",""
"當月總計","1,256,923"
"日平均","40,546"
"","","單位：人次"
"","",""
""
"","",""

