"臺北捷運公司運量統計表"
"營運日","星期","總 運 量"
"86/3/1","六","51,352"
"86/3/2","日","32,671"
"86/3/3","一","43,836"
"86/3/4","二","43,806"
"86/3/5","三","44,883"
"86/3/6","四","45,668"
"86/3/7","五","44,365"
"86/3/8","六","48,825"
"86/3/9","日","45,285"
"86/3/10","一","42,724"
"86/3/11","二","44,094"
"86/3/12","三","43,926"
"86/3/13","四","44,629"
"86/3/14","五","44,445"
"86/3/15","六","45,573"
"86/3/16","日","35,959"
"86/3/17","一","41,999"
"86/3/18","二","43,816"
"86/3/19","三","43,899"
"86/3/20","四","44,577"
"86/3/21","五","44,659"
"86/3/22","六","41,477"
"86/3/23","日","27,222"
"86/3/24","一","42,587"
"86/3/25","二","43,206"
"86/3/26","三","42,260"
"86/3/27","四","42,668"
"86/3/28","五","60,585"
"86/3/29","六","37,519"
"86/3/30","日","33,446"
"86/3/31","一","45,068"
"","",""
"當月總計","1,337,029"
"日平均","43,130"
"","","單位：人次"
"","",""
""
"","",""

