"臺北捷運公司運量統計表"
"營運日","星期","總 運 量"
"86/4/1","二","45,663"
"86/4/2","三","45,084"
"86/4/3","四","42,983"
"86/4/4","五","26,945"
"86/4/5","六","25,413"
"86/4/6","日","25,453"
"86/4/7","一","39,383"
"86/4/8","二","41,329"
"86/4/9","三","42,215"
"86/4/10","四","45,016"
"86/4/11","五","83,798"
"86/4/12","六","115,951"
"86/4/13","日","140,198"
"86/4/14","一","81,854"
"86/4/15","二","77,960"
"86/4/16","三","82,241"
"86/4/17","四","83,979"
"86/4/18","五","85,309"
"86/4/19","六","109,156"
"86/4/20","日","130,926"
"86/4/21","一","81,707"
"86/4/22","二","77,705"
"86/4/23","三","84,756"
"86/4/24","四","79,282"
"86/4/25","五","85,123"
"86/4/26","六","108,921"
"86/4/27","日","121,950"
"86/4/28","一","80,384"
"86/4/29","二","76,149"
"86/4/30","三","71,914"
"","",""
"當月總計","2,238,747"
"日平均","74,625"
"","","單位：人次"
"","",""
""
"","",""

