"臺北捷運公司運量統計表"
"營運日","星期","總 運 量"
"86/5/1","四","87,753"
"86/5/2","五","80,413"
"86/5/3","六","101,419"
"86/5/4","日","106,453"
"86/5/5","一","81,759"
"86/5/6","二","78,786"
"86/5/7","三","77,602"
"86/5/8","四","77,037"
"86/5/9","五","83,087"
"86/5/10","六","100,035"
"86/5/11","日","98,643"
"86/5/12","一","76,340"
"86/5/13","二","79,648"
"86/5/14","三","88,090"
"86/5/15","四","80,347"
"86/5/16","五","82,972"
"86/5/17","六","94,783"
"86/5/18","日","107,999"
"86/5/19","一","78,308"
"86/5/20","二","82,286"
"86/5/21","三","82,862"
"86/5/22","四","78,630"
"86/5/23","五","85,710"
"86/5/24","六","107,842"
"86/5/25","日","117,404"
"86/5/26","一","83,909"
"86/5/27","二","84,549"
"86/5/28","三","86,731"
"86/5/29","四","79,780"
"86/5/30","五","84,819"
"86/5/31","六","105,934"
"","",""
"當月總計","2,741,930"
"日平均","88,449"
"","","單位：人次"
"","",""
""
"","",""

