"臺北捷運公司運量統計表"
"營運日","星期","總 運 量"
"86/6/1","日","109,124"
"86/6/2","一","78,533"
"86/6/3","二","82,556"
"86/6/4","三","83,385"
"86/6/5","四","82,328"
"86/6/6","五","85,538"
"86/6/7","六","98,315"
"86/6/8","日","101,797"
"86/6/9","一","88,120"
"86/6/10","二","92,970"
"86/6/11","三","86,282"
"86/6/12","四","88,198"
"86/6/13","五","87,469"
"86/6/14","六","95,320"
"86/6/15","日","62,475"
"86/6/16","一","85,213"
"86/6/17","二","88,856"
"86/6/18","三","88,820"
"86/6/19","四","87,148"
"86/6/20","五","90,467"
"86/6/21","六","102,786"
"86/6/22","日","80,733"
"86/6/23","一","82,964"
"86/6/24","二","82,908"
"86/6/25","三","88,230"
"86/6/26","四","86,499"
"86/6/27","五","88,224"
"86/6/28","六","101,205"
"86/6/29","日","102,232"
"86/6/30","一","93,940"
"","",""
"當月總計","2,672,635"
"日平均","89,088"
"","","單位：人次"
"","",""
""
"","",""

