"臺北捷運公司運量統計表"
"營運日","星期","總 運 量"
"86/11/1","六","140,023"
"86/11/2","日","125,196"
"86/11/3","一","101,746"
"86/11/4","二","103,801"
"86/11/5","三","106,002"
"86/11/6","四","111,107"
"86/11/7","五","111,250"
"86/11/8","六","128,431"
"86/11/9","日","111,416"
"86/11/10","一","109,940"
"86/11/11","二","115,682"
"86/11/12","三","121,474"
"86/11/13","四","109,469"
"86/11/14","五","109,094"
"86/11/15","六","121,426"
"86/11/16","日","106,460"
"86/11/17","一","103,382"
"86/11/18","二","104,391"
"86/11/19","三","103,163"
"86/11/20","四","104,770"
"86/11/21","五","108,705"
"86/11/22","六","119,468"
"86/11/23","日","96,714"
"86/11/24","一","107,170"
"86/11/25","二","108,003"
"86/11/26","三","106,193"
"86/11/27","四","105,413"
"86/11/28","五","112,691"
"86/11/29","六","107,633"
"86/11/30","日","86,131"
"","",""
"當月總計","3,306,344"
"日平均","110,211"
"","","單位：人次"
"","",""
""
"","",""

