"臺北捷運公司運量統計表"
"營運日","星期","總 運 量"
"87/1/1","四","168,771"
"87/1/2","五","176,623"
"87/1/3","六","159,646"
"87/1/4","日","106,246"
"87/1/5","一","118,035"
"87/1/6","二","121,122"
"87/1/7","三","122,952"
"87/1/8","四","122,037"
"87/1/9","五","129,704"
"87/1/10","六","139,528"
"87/1/11","日","119,942"
"87/1/12","一","120,069"
"87/1/13","二","120,324"
"87/1/14","三","118,927"
"87/1/15","四","121,534"
"87/1/16","五","124,539"
"87/1/17","六","139,785"
"87/1/18","日","86,347"
"87/1/19","一","124,190"
"87/1/20","二","118,831"
"87/1/21","三","132,015"
"87/1/22","四","125,339"
"87/1/23","五","142,256"
"87/1/24","六","101,120"
"87/1/25","日","76,855"
"87/1/26","一","92,448"
"87/1/27","二","36,479"
"87/1/28","三","80,790"
"87/1/29","四","107,006"
"87/1/30","五","179,853"
"87/1/31","六","189,959"
"","",""
"當月總計","3,823,272"
"日平均","123,331"
"","","單位：人次"
"","",""
""
"","",""

