"臺北捷運公司運量統計表"
"營運日","星期","總 運 量"
"87/4/1","三","166,248"
"87/4/2","四","152,815"
"87/4/3","五","158,078"
"87/4/4","六","176,476"
"87/4/5","日","149,266"
"87/4/6","一","193,433"
"87/4/7","二","184,190"
"87/4/8","三","186,059"
"87/4/9","四","166,982"
"87/4/10","五","170,156"
"87/4/11","六","172,998"
"87/4/12","日","131,600"
"87/4/13","一","149,350"
"87/4/14","二","153,004"
"87/4/15","三","158,769"
"87/4/16","四","157,635"
"87/4/17","五","161,468"
"87/4/18","六","183,463"
"87/4/19","日","148,657"
"87/4/20","一","156,765"
"87/4/21","二","151,633"
"87/4/22","三","154,742"
"87/4/23","四","153,964"
"87/4/24","五","170,912"
"87/4/25","六","146,828"
"87/4/26","日","125,505"
"87/4/27","一","157,300"
"87/4/28","二","155,254"
"87/4/29","三","160,018"
"87/4/30","四","158,672"
"","",""
"當月總計","4,812,240"
"日平均","160,408"
"","","單位：人次"
"","",""
""
"","",""

