"臺北捷運公司運量統計表"
"營運日","星期","總 運 量"
"87/7/1","三","147,196"
"87/7/2","四","154,868"
"87/7/3","五","160,456"
"87/7/4","六","163,015"
"87/7/5","日","124,760"
"87/7/6","一","160,893"
"87/7/7","二","159,964"
"87/7/8","三","161,657"
"87/7/9","四","162,847"
"87/7/10","五","170,764"
"87/7/11","六","149,618"
"87/7/12","日","132,833"
"87/7/13","一","156,280"
"87/7/14","二","166,385"
"87/7/15","三","166,100"
"87/7/16","四","165,723"
"87/7/17","五","167,887"
"87/7/18","六","171,560"
"87/7/19","日","138,893"
"87/7/20","一","159,745"
"87/7/21","二","164,971"
"87/7/22","三","164,929"
"87/7/23","四","162,633"
"87/7/24","五","166,414"
"87/7/25","六","155,994"
"87/7/26","日","136,345"
"87/7/27","一","160,564"
"87/7/28","二","161,288"
"87/7/29","三","168,072"
"87/7/30","四","160,671"
"87/7/31","五","163,740"
"","",""
"當月總計","4,907,065"
"日平均","158,292"
"","","單位：人次"
"","",""
""
"","",""

