"臺北捷運公司運量統計表"
"營運日","星期","總 運 量"
"87/8/1","六","172,460"
"87/8/2","日","141,979"
"87/8/3","一","163,957"
"87/8/4","二","155,263"
"87/8/5","三","168,862"
"87/8/6","四","162,561"
"87/8/7","五","178,398"
"87/8/8","六","153,371"
"87/8/9","日","153,549"
"87/8/10","一","177,759"
"87/8/11","二","176,389"
"87/8/12","三","176,590"
"87/8/13","四","172,632"
"87/8/14","五","173,653"
"87/8/15","六","188,887"
"87/8/16","日","162,330"
"87/8/17","一","171,791"
"87/8/18","二","175,823"
"87/8/19","三","173,908"
"87/8/20","四","168,099"
"87/8/21","五","180,926"
"87/8/22","六","154,773"
"87/8/23","日","159,579"
"87/8/24","一","170,947"
"87/8/25","二","171,166"
"87/8/26","三","171,623"
"87/8/27","四","170,536"
"87/8/28","五","177,145"
"87/8/29","六","161,441"
"87/8/30","日","134,622"
"87/8/31","一","161,556"
"","",""
"當月總計","5,182,575"
"日平均","167,180"
"","","單位：人次"
"","",""
""
"","",""

