"臺北捷運公司運量統計表"
"營運日","星期","總 運 量"
"87/9/1","二","164,066"
"87/9/2","三","167,127"
"87/9/3","四","170,176"
"87/9/4","五","168,040"
"87/9/5","六","161,019"
"87/9/6","日","130,708"
"87/9/7","一","166,967"
"87/9/8","二","167,028"
"87/9/9","三","174,456"
"87/9/10","四","173,050"
"87/9/11","五","183,732"
"87/9/12","六","149,531"
"87/9/13","日","153,948"
"87/9/14","一","174,750"
"87/9/15","二","178,508"
"87/9/16","三","180,746"
"87/9/17","四","178,566"
"87/9/18","五","185,833"
"87/9/19","六","199,551"
"87/9/20","日","157,489"
"87/9/21","一","182,436"
"87/9/22","二","180,442"
"87/9/23","三","184,562"
"87/9/24","四","181,162"
"87/9/25","五","196,869"
"87/9/26","六","151,371"
"87/9/27","日","128,558"
"87/9/28","一","173,564"
"87/9/29","二","180,169"
"87/9/30","三","185,868"
"","",""
"當月總計","5,130,292"
"日平均","171,010"
"","","單位：人次"
"","",""
""
"","",""

