"臺北捷運公司運量統計表"
"營運日","星期","總 運 量"
"87/10/1","四","184,454"
"87/10/2","五","198,586"
"87/10/3","六","187,316"
"87/10/4","日","109,442"
"87/10/5","一","97,480"
"87/10/6","二","185,095"
"87/10/7","三","186,153"
"87/10/8","四","183,009"
"87/10/9","五","203,312"
"87/10/10","六","198,050"
"87/10/11","日","157,885"
"87/10/12","一","193,602"
"87/10/13","二","185,372"
"87/10/14","三","184,577"
"87/10/15","四","156,787"
"87/10/16","五","13,471"
"87/10/17","六","200,351"
"87/10/18","日","148,238"
"87/10/19","一","187,802"
"87/10/20","二","184,431"
"87/10/21","三","194,590"
"87/10/22","四","190,233"
"87/10/23","五","208,066"
"87/10/24","六","147,268"
"87/10/25","日","84,844"
"87/10/26","一","182,985"
"87/10/27","二","158,450"
"87/10/28","三","187,831"
"87/10/29","四","188,531"
"87/10/30","五","201,178"
"87/10/31","六","216,493"
"","",""
"當月總計","5,305,882"
"日平均","171,157"
"","","單位：人次"
"","",""
""
"","",""

