"臺北捷運公司運量統計表"
"營運日","星期","總 運 量"
"88/1/1","五","335,260"
"88/1/2","六","340,148"
"88/1/3","日","272,406"
"88/1/4","一","270,615"
"88/1/5","二","268,244"
"88/1/6","三","279,268"
"88/1/7","四","279,756"
"88/1/8","五","303,703"
"88/1/9","六","283,319"
"88/1/10","日","256,957"
"88/1/11","一","268,670"
"88/1/12","二","272,335"
"88/1/13","三","282,340"
"88/1/14","四","281,717"
"88/1/15","五","293,802"
"88/1/16","六","313,396"
"88/1/17","日","251,475"
"88/1/18","一","281,184"
"88/1/19","二","277,803"
"88/1/20","三","281,176"
"88/1/21","四","280,805"
"88/1/22","五","301,847"
"88/1/23","六","273,010"
"88/1/24","日","243,401"
"88/1/25","一","277,440"
"88/1/26","二","270,722"
"88/1/27","三","287,964"
"88/1/28","四","276,546"
"88/1/29","五","304,780"
"88/1/30","六","333,270"
"88/1/31","日","279,200"
"","",""
"當月總計","8,822,559"
"日平均","284,599"
"","","單位：人次"
"","",""
""
"","",""

