"臺北捷運公司運量統計表"
"營運日","星期","總 運 量"
"88/3/1","一","332,101"
"88/3/2","二","435,288"
"88/3/3","三","368,526"
"88/3/4","四","358,073"
"88/3/5","五","348,114"
"88/3/6","六","470,317"
"88/3/7","日","352,795"
"88/3/8","一","310,368"
"88/3/9","二","304,242"
"88/3/10","三","310,049"
"88/3/11","四","312,606"
"88/3/12","五","341,485"
"88/3/13","六","283,179"
"88/3/14","日","268,504"
"88/3/15","一","308,622"
"88/3/16","二","311,076"
"88/3/17","三","317,212"
"88/3/18","四","310,699"
"88/3/19","五","331,790"
"88/3/20","六","375,098"
"88/3/21","日","248,991"
"88/3/22","一","312,373"
"88/3/23","二","313,493"
"88/3/24","三","315,865"
"88/3/25","四","312,678"
"88/3/26","五","338,754"
"88/3/27","六","315,775"
"88/3/28","日","273,204"
"88/3/29","一","306,159"
"88/3/30","二","313,299"
"88/3/31","三","317,277"
"","",""
"當月總計","10,118,012"
"日平均","326,387"
"","","單位：人次"
"","",""
""
"","",""

