"臺北捷運公司運量統計表"
"營運日","星期","總 運 量"
"88/4/1","四","316,548"
"88/4/2","五","343,578"
"88/4/3","六","351,515"
"88/4/4","日","269,183"
"88/4/5","一","229,349"
"88/4/6","二","359,282"
"88/4/7","三","369,388"
"88/4/8","四","356,370"
"88/4/9","五","333,979"
"88/4/10","六","346,504"
"88/4/11","日","317,252"
"88/4/12","一","312,253"
"88/4/13","二","308,898"
"88/4/14","三","311,120"
"88/4/15","四","311,009"
"88/4/16","五","321,512"
"88/4/17","六","353,425"
"88/4/18","日","268,391"
"88/4/19","一","296,230"
"88/4/20","二","304,896"
"88/4/21","三","309,785"
"88/4/22","四","312,350"
"88/4/23","五","343,300"
"88/4/24","六","344,499"
"88/4/25","日","312,962"
"88/4/26","一","306,818"
"88/4/27","二","305,771"
"88/4/28","三","312,548"
"88/4/29","四","308,542"
"88/4/30","五","328,404"
"","",""
"當月總計","9,565,661"
"日平均","318,855"
"","","單位：人次"
"","",""
""
"","",""

