"臺北捷運公司運量統計表"
"營運日","星期","總 運 量"
"88/6/1","二","316,918"
"88/6/2","三","320,960"
"88/6/3","四","321,786"
"88/6/4","五","333,988"
"88/6/5","六","339,436"
"88/6/6","日","234,725"
"88/6/7","一","316,515"
"88/6/8","二","308,457"
"88/6/9","三","321,837"
"88/6/10","四","324,687"
"88/6/11","五","352,000"
"88/6/12","六","337,568"
"88/6/13","日","219,572"
"88/6/14","一","320,037"
"88/6/15","二","314,267"
"88/6/16","三","327,508"
"88/6/17","四","331,699"
"88/6/18","五","195,543"
"88/6/19","六","256,374"
"88/6/20","日","232,333"
"88/6/21","一","314,246"
"88/6/22","二","319,693"
"88/6/23","三","323,848"
"88/6/24","四","309,544"
"88/6/25","五","344,619"
"88/6/26","六","304,244"
"88/6/27","日","259,961"
"88/6/28","一","320,212"
"88/6/29","二","317,543"
"88/6/30","三","330,861"
"","",""
"當月總計","9,170,981"
"日平均","305,699"
"","","單位：人次"
"","",""
""
"","",""

