"臺北捷運公司運量統計表"
"營運日","星期","總 運 量"
"89/2/1","二","651,744"
"89/2/2","三","649,066"
"89/2/3","四","553,818"
"89/2/4","五","206,990"
"89/2/5","六","523,395"
"89/2/6","日","491,397"
"89/2/7","一","639,324"
"89/2/8","二","672,394"
"89/2/9","三","651,700"
"89/2/10","四","688,861"
"89/2/11","五","716,579"
"89/2/12","六","739,895"
"89/2/13","日","697,301"
"89/2/14","一","737,681"
"89/2/15","二","715,321"
"89/2/16","三","717,978"
"89/2/17","四","756,217"
"89/2/18","五","957,192"
"89/2/19","六","1,183,926"
"89/2/20","日","611,214"
"89/2/21","一","741,498"
"89/2/22","二","764,650"
"89/2/23","三","728,812"
"89/2/24","四","694,006"
"89/2/25","五","774,186"
"89/2/26","六","877,461"
"89/2/27","日","742,903"
"89/2/28","一","562,350"
"89/2/29","二","687,077"
"","",""
"當月總計","20,134,936"
"日平均","694,308"
"","","單位：人次"
"","",""
""
"","",""

