"臺北捷運公司運量統計表"
"營運日","星期","總 運 量"
"89/5/1","一","639,790"
"89/5/2","二","681,541"
"89/5/3","三","690,711"
"89/5/4","四","676,923"
"89/5/5","五","714,021"
"89/5/6","六","817,575"
"89/5/7","日","631,690"
"89/5/8","一","677,242"
"89/5/9","二","673,452"
"89/5/10","三","712,945"
"89/5/11","四","695,190"
"89/5/12","五","765,237"
"89/5/13","六","738,890"
"89/5/14","日","617,047"
"89/5/15","一","685,807"
"89/5/16","二","685,334"
"89/5/17","三","691,006"
"89/5/18","四","684,498"
"89/5/19","五","712,184"
"89/5/20","六","862,220"
"89/5/21","日","621,041"
"89/5/22","一","677,243"
"89/5/23","二","665,341"
"89/5/24","三","679,351"
"89/5/25","四","674,869"
"89/5/26","五","727,927"
"89/5/27","六","726,836"
"89/5/28","日","585,182"
"89/5/29","一","659,406"
"89/5/30","二","669,013"
"89/5/31","三","686,675"
"","",""
"當月總計","21,426,187"
"日平均","691,167"
"","","單位：人次"
"","",""
""
"","",""

