"臺北捷運公司運量統計表"
"營運日","星期","總 運 量"
"89/6/1","四","676,215"
"89/6/2","五","708,167"
"89/6/3","六","774,190"
"89/6/4","日","565,207"
"89/6/5","一","696,785"
"89/6/6","二","481,656"
"89/6/7","三","707,187"
"89/6/8","四","697,831"
"89/6/9","五","760,779"
"89/6/10","六","684,024"
"89/6/11","日","485,217"
"89/6/12","一","685,112"
"89/6/13","二","706,465"
"89/6/14","三","698,986"
"89/6/15","四","685,971"
"89/6/16","五","707,901"
"89/6/17","六","766,616"
"89/6/18","日","543,364"
"89/6/19","一","686,210"
"89/6/20","二","697,578"
"89/6/21","三","700,274"
"89/6/22","四","703,738"
"89/6/23","五","773,936"
"89/6/24","六","668,911"
"89/6/25","日","568,535"
"89/6/26","一","690,241"
"89/6/27","二","668,016"
"89/6/28","三","693,410"
"89/6/29","四","706,043"
"89/6/30","五","758,993"
"","",""
"當月總計","20,347,558"
"日平均","678,252"
"","","單位：人次"
"","",""
""
"","",""

