"臺北捷運公司運量統計表"
"營運日","星期","總 運 量"
"89/12/1","五","901,107"
"89/12/2","六","990,984"
"89/12/3","日","756,200"
"89/12/4","一","820,471"
"89/12/5","二","827,285"
"89/12/6","三","847,610"
"89/12/7","四","846,850"
"89/12/8","五","941,759"
"89/12/9","六","976,739"
"89/12/10","日","764,867"
"89/12/11","一","822,157"
"89/12/12","二","827,638"
"89/12/13","三","844,168"
"89/12/14","四","838,551"
"89/12/15","五","895,144"
"89/12/16","六","1,003,503"
"89/12/17","日","703,987"
"89/12/18","一","833,730"
"89/12/19","二","845,552"
"89/12/20","三","861,227"
"89/12/21","四","867,598"
"89/12/22","五","968,308"
"89/12/23","六","939,809"
"89/12/24","日","1,063,452"
"89/12/25","一","762,372"
"89/12/26","二","831,259"
"89/12/27","三","846,646"
"89/12/28","四","853,586"
"89/12/29","五","893,054"
"89/12/30","六","941,472"
"89/12/31","日","1,395,391"
"","",""
"當月總計","27,512,476"
"日平均","887,499"
"","","單位：人次"
"","",""
""
"","",""

