"臺北捷運公司運量統計表"
"營運日","星期","總 運 量"
"90/2/1","四","926,730"
"90/2/2","五","950,161"
"90/2/3","六","965,307"
"90/2/4","日","913,058"
"90/2/5","一","987,067"
"90/2/6","二","1,066,575"
"90/2/7","三","1,071,783"
"90/2/8","四","989,197"
"90/2/9","五","1,076,651"
"90/2/10","六","1,091,708"
"90/2/11","日","999,016"
"90/2/12","一","945,011"
"90/2/13","二","986,398"
"90/2/14","三","1,031,555"
"90/2/15","四","982,980"
"90/2/16","五","1,011,021"
"90/2/17","六","985,102"
"90/2/18","日","834,452"
"90/2/19","一","905,212"
"90/2/20","二","887,942"
"90/2/21","三","888,673"
"90/2/22","四","877,569"
"90/2/23","五","968,784"
"90/2/24","六","918,585"
"90/2/25","日","759,438"
"90/2/26","一","889,325"
"90/2/27","二","929,648"
"90/2/28","三","835,075"
"","",""
"當月總計","26,674,023"
"日平均","952,644"
"","","單位：人次"
"","",""
""
"","",""

