"臺北捷運公司運量統計表"
"營運日","星期","總 運 量"
"90/3/1","四","894,404"
"90/3/2","五","952,875"
"90/3/3","六","887,926"
"90/3/4","日","825,701"
"90/3/5","一","887,209"
"90/3/6","二","888,856"
"90/3/7","三","888,810"
"90/3/8","四","908,874"
"90/3/9","五","994,200"
"90/3/10","六","977,957"
"90/3/11","日","706,105"
"90/3/12","一","899,038"
"90/3/13","二","903,166"
"90/3/14","三","909,393"
"90/3/15","四","908,478"
"90/3/16","五","973,718"
"90/3/17","六","927,634"
"90/3/18","日","762,757"
"90/3/19","一","880,683"
"90/3/20","二","880,721"
"90/3/21","三","896,430"
"90/3/22","四","897,040"
"90/3/23","五","962,742"
"90/3/24","六","886,080"
"90/3/25","日","656,230"
"90/3/26","一","870,226"
"90/3/27","二","925,368"
"90/3/28","三","912,019"
"90/3/29","四","912,915"
"90/3/30","五","1,000,736"
"90/3/31","六","908,700"
"","",""
"當月總計","27,686,991"
"日平均","893,129"
"","","單位：人次"
"","",""
""
"","",""

