"臺北捷運公司運量統計表"
"營運日","星期","總 運 量"
"90/5/1","二","798,191"
"90/5/2","三","882,931"
"90/5/3","四","868,218"
"90/5/4","五","956,165"
"90/5/5","六","896,848"
"90/5/6","日","753,343"
"90/5/7","一","869,256"
"90/5/8","二","862,920"
"90/5/9","三","886,216"
"90/5/10","四","915,304"
"90/5/11","五","1,002,495"
"90/5/12","六","861,125"
"90/5/13","日","717,010"
"90/5/14","一","871,281"
"90/5/15","二","884,316"
"90/5/16","三","914,566"
"90/5/17","四","880,276"
"90/5/18","五","966,707"
"90/5/19","六","914,794"
"90/5/20","日","720,911"
"90/5/21","一","862,436"
"90/5/22","二","840,631"
"90/5/23","三","888,997"
"90/5/24","四","874,908"
"90/5/25","五","968,618"
"90/5/26","六","941,193"
"90/5/27","日","759,447"
"90/5/28","一","878,650"
"90/5/29","二","879,379"
"90/5/30","三","879,817"
"90/5/31","四","872,755"
"","",""
"當月總計","27,069,704"
"日平均","873,216"
"","","單位：人次"
"","",""
""
"","",""

