"臺北捷運公司運量統計表"
"營運日","星期","總 運 量"
"90/8/1","三","939,504"
"90/8/2","四","965,422"
"90/8/3","五","1,001,542"
"90/8/4","六","886,939"
"90/8/5","日","782,221"
"90/8/6","一","941,469"
"90/8/7","二","947,882"
"90/8/8","三","950,129"
"90/8/9","四","951,084"
"90/8/10","五","1,014,765"
"90/8/11","六","934,156"
"90/8/12","日","792,401"
"90/8/13","一","952,877"
"90/8/14","二","977,682"
"90/8/15","三","977,110"
"90/8/16","四","943,774"
"90/8/17","五","1,002,625"
"90/8/18","六","917,197"
"90/8/19","日","753,244"
"90/8/20","一","930,135"
"90/8/21","二","969,385"
"90/8/22","三","979,483"
"90/8/23","四","980,968"
"90/8/24","五","1,026,126"
"90/8/25","六","985,180"
"90/8/26","日","772,598"
"90/8/27","一","919,566"
"90/8/28","二","929,748"
"90/8/29","三","903,720"
"90/8/30","四","907,771"
"90/8/31","五","941,634"
"","",""
"當月總計","28,878,337"
"日平均","931,559"
"","","單位：人次"
"","",""
""
"","",""

