"臺北捷運公司運量統計表"
"營運日","星期","總 運 量"
"90/9/1","六","728,100"
"90/9/2","日","559,042"
"90/9/3","一","892,584"
"90/9/4","二","909,521"
"90/9/5","三","901,949"
"90/9/6","四","911,475"
"90/9/7","五","992,236"
"90/9/8","六","927,827"
"90/9/9","日","739,740"
"90/9/10","一","919,961"
"90/9/11","二","932,915"
"90/9/12","三","915,495"
"90/9/13","四","923,040"
"90/9/14","五","998,153"
"90/9/15","六","835,698"
"90/9/16","日","276,400"
"90/9/17","一","14,116"
"90/9/18","二","22,262"
"90/9/19","三","207,156"
"90/9/20","四","248,800"
"90/9/21","五","276,512"
"90/9/22","六","187,023"
"90/9/23","日","133,312"
"90/9/24","一","292,714"
"90/9/25","二","291,214"
"90/9/26","三","283,308"
"90/9/27","四","292,655"
"90/9/28","五","318,077"
"90/9/29","六","184,067"
"90/9/30","日","160,657"
"","",""
"當月總計","16,276,009"
"日平均","542,534"
"","","單位：人次"
"","",""
""
"","",""

