"臺北捷運公司運量統計表"
"營運日","星期","總 運 量"
"90/11/1","四","585,307"
"90/11/2","五","649,163"
"90/11/3","六","581,742"
"90/11/4","日","505,570"
"90/11/5","一","594,422"
"90/11/6","二","605,451"
"90/11/7","三","605,616"
"90/11/8","四","612,257"
"90/11/9","五","683,952"
"90/11/10","六","610,780"
"90/11/11","日","524,331"
"90/11/12","一","617,021"
"90/11/13","二","612,467"
"90/11/14","三","595,286"
"90/11/15","四","617,449"
"90/11/16","五","673,988"
"90/11/17","六","613,359"
"90/11/18","日","529,857"
"90/11/19","一","631,036"
"90/11/20","二","630,608"
"90/11/21","三","634,404"
"90/11/22","四","635,861"
"90/11/23","五","688,780"
"90/11/24","六","645,342"
"90/11/25","日","536,934"
"90/11/26","一","621,866"
"90/11/27","二","652,758"
"90/11/28","三","655,668"
"90/11/29","四","692,137"
"90/11/30","五","803,670"
"","",""
"當月總計","18,647,082"
"日平均","621,569"
"","","單位：人次"
"","",""
""
"","",""

