"臺北捷運公司運量統計表"
"營運日","星期","總 運 量"
"90/12/1","六","645,707"
"90/12/2","日","604,016"
"90/12/3","一","677,050"
"90/12/4","二","687,613"
"90/12/5","三","708,680"
"90/12/6","四","714,955"
"90/12/7","五","781,592"
"90/12/8","六","836,073"
"90/12/9","日","702,337"
"90/12/10","一","749,830"
"90/12/11","二","766,068"
"90/12/12","三","781,426"
"90/12/13","四","772,506"
"90/12/14","五","874,636"
"90/12/15","六","867,352"
"90/12/16","日","770,719"
"90/12/17","一","828,910"
"90/12/18","二","839,242"
"90/12/19","三","861,633"
"90/12/20","四","859,441"
"90/12/21","五","931,550"
"90/12/22","六","857,054"
"90/12/23","日","732,488"
"90/12/24","一","973,774"
"90/12/25","二","877,594"
"90/12/26","三","853,684"
"90/12/27","四","861,364"
"90/12/28","五","954,940"
"90/12/29","六","852,240"
"90/12/30","日","742,600"
"90/12/31","一","1,330,968"
"","",""
"當月總計","25,298,042"
"日平均","816,066"
"","","單位：人次"
"","",""
""
"","",""

