"臺北捷運公司運量統計表"
"營運日","星期","總 運 量"
"91/3/1","五","1,013,855"
"91/3/2","六","1,029,233"
"91/3/3","日","829,184"
"91/3/4","一","876,755"
"91/3/5","二","884,208"
"91/3/6","三","887,791"
"91/3/7","四","890,771"
"91/3/8","五","961,345"
"91/3/9","六","959,782"
"91/3/10","日","803,295"
"91/3/11","一","878,014"
"91/3/12","二","884,664"
"91/3/13","三","886,130"
"91/3/14","四","877,731"
"91/3/15","五","964,638"
"91/3/16","六","862,495"
"91/3/17","日","711,313"
"91/3/18","一","865,479"
"91/3/19","二","877,131"
"91/3/20","三","895,608"
"91/3/21","四","884,096"
"91/3/22","五","954,190"
"91/3/23","六","873,780"
"91/3/24","日","674,337"
"91/3/25","一","869,778"
"91/3/26","二","892,621"
"91/3/27","三","898,701"
"91/3/28","四","897,826"
"91/3/29","五","979,379"
"91/3/30","六","828,052"
"91/3/31","日","526,645"
"","",""
"當月總計","27,118,827"
"日平均","874,801"
"","","單位：人次"
"","",""
""
"","",""

