"臺北捷運公司運量統計表"
"營運日","星期","總 運 量"
"91/4/1","一","855,515"
"91/4/2","二","873,132"
"91/4/3","三","883,437"
"91/4/4","四","926,928"
"91/4/5","五","657,879"
"91/4/6","六","828,784"
"91/4/7","日","709,560"
"91/4/8","一","853,219"
"91/4/9","二","854,027"
"91/4/10","三","869,878"
"91/4/11","四","863,278"
"91/4/12","五","965,239"
"91/4/13","六","916,702"
"91/4/14","日","757,304"
"91/4/15","一","850,681"
"91/4/16","二","862,081"
"91/4/17","三","868,251"
"91/4/18","四","867,960"
"91/4/19","五","955,400"
"91/4/20","六","900,518"
"91/4/21","日","760,115"
"91/4/22","一","848,204"
"91/4/23","二","870,522"
"91/4/24","三","873,110"
"91/4/25","四","873,726"
"91/4/26","五","962,712"
"91/4/27","六","901,358"
"91/4/28","日","800,989"
"91/4/29","一","879,307"
"91/4/30","二","878,815"
"","",""
"當月總計","25,768,631"
"日平均","858,954"
"","","單位：人次"
"","",""
""
"","",""

