"臺北捷運公司運量統計表"
"營運日","星期","總 運 量"
"91/6/1","六","897,175"
"91/6/2","日","734,002"
"91/6/3","一","868,514"
"91/6/4","二","860,933"
"91/6/5","三","894,159"
"91/6/6","四","898,624"
"91/6/7","五","973,356"
"91/6/8","六","881,190"
"91/6/9","日","705,717"
"91/6/10","一","867,968"
"91/6/11","二","874,325"
"91/6/12","三","892,612"
"91/6/13","四","886,128"
"91/6/14","五","958,250"
"91/6/15","六","658,699"
"91/6/16","日","653,419"
"91/6/17","一","859,023"
"91/6/18","二","897,097"
"91/6/19","三","885,407"
"91/6/20","四","888,526"
"91/6/21","五","953,958"
"91/6/22","六","791,278"
"91/6/23","日","672,726"
"91/6/24","一","884,772"
"91/6/25","二","856,645"
"91/6/26","三","890,225"
"91/6/27","四","882,403"
"91/6/28","五","1,002,098"
"91/6/29","六","848,159"
"91/6/30","日","715,921"
"","",""
"當月總計","25,533,309"
"日平均","851,110"
"","","單位：人次"
"","",""
""
"","",""

