"臺北捷運公司運量統計表"
"營運日","星期","總 運 量"
"91/7/1","一","901,498"
"91/7/2","二","920,687"
"91/7/3","三","861,723"
"91/7/4","四","870,220"
"91/7/5","五","990,086"
"91/7/6","六","826,339"
"91/7/7","日","731,201"
"91/7/8","一","915,231"
"91/7/9","二","884,743"
"91/7/10","三","841,675"
"91/7/11","四","957,832"
"91/7/12","五","1,014,340"
"91/7/13","六","902,953"
"91/7/14","日","752,487"
"91/7/15","一","936,939"
"91/7/16","二","953,801"
"91/7/17","三","971,335"
"91/7/18","四","933,347"
"91/7/19","五","978,013"
"91/7/20","六","874,117"
"91/7/21","日","765,936"
"91/7/22","一","916,113"
"91/7/23","二","925,144"
"91/7/24","三","930,852"
"91/7/25","四","932,393"
"91/7/26","五","992,661"
"91/7/27","六","886,445"
"91/7/28","日","769,699"
"91/7/29","一","900,771"
"91/7/30","二","924,338"
"91/7/31","三","927,473"
"","",""
"當月總計","27,890,392"
"日平均","899,690"
"","","單位：人次"
"","",""
""
"","",""

