"臺北捷運公司運量統計表"
"營運日","星期","總 運 量"
"91/8/1","四","927,795"
"91/8/2","五","988,665"
"91/8/3","六","886,442"
"91/8/4","日","740,521"
"91/8/5","一","934,821"
"91/8/6","二","931,442"
"91/8/7","三","978,663"
"91/8/8","四","911,449"
"91/8/9","五","984,618"
"91/8/10","六","916,813"
"91/8/11","日","812,720"
"91/8/12","一","937,812"
"91/8/13","二","943,716"
"91/8/14","三","964,603"
"91/8/15","四","1,014,018"
"91/8/16","五","994,539"
"91/8/17","六","900,636"
"91/8/18","日","783,756"
"91/8/19","一","918,593"
"91/8/20","二","944,501"
"91/8/21","三","961,118"
"91/8/22","四","940,336"
"91/8/23","五","920,872"
"91/8/24","六","870,160"
"91/8/25","日","745,187"
"91/8/26","一","918,839"
"91/8/27","二","935,188"
"91/8/28","三","936,153"
"91/8/29","四","916,080"
"91/8/30","五","960,348"
"91/8/31","六","832,587"
"","",""
"當月總計","28,352,991"
"日平均","914,613"
"","","單位：人次"
"","",""
""
"","",""

