"臺北捷運公司運量統計表"
"營運日","星期","總 運 量"
"92/3/1","六","962,738"
"92/3/2","日","807,168"
"92/3/3","一","942,777"
"92/3/4","二","951,048"
"92/3/5","三","968,951"
"92/3/6","四","961,970"
"92/3/7","五","1,057,357"
"92/3/8","六","955,342"
"92/3/9","日","770,742"
"92/3/10","一","971,949"
"92/3/11","二","972,802"
"92/3/12","三","981,008"
"92/3/13","四","964,178"
"92/3/14","五","1,075,892"
"92/3/15","六","971,787"
"92/3/16","日","798,797"
"92/3/17","一","953,588"
"92/3/18","二","947,911"
"92/3/19","三","953,726"
"92/3/20","四","971,290"
"92/3/21","五","1,057,393"
"92/3/22","六","913,124"
"92/3/23","日","754,690"
"92/3/24","一","947,627"
"92/3/25","二","965,062"
"92/3/26","三","996,087"
"92/3/27","四","955,459"
"92/3/28","五","1,024,745"
"92/3/29","六","886,019"
"92/3/30","日","709,743"
"92/3/31","一","889,686"
"","",""
"當月總計","29,040,656"
"日平均","936,795"
"","","單位：人次"
"","",""
""
"","",""

