"臺北捷運公司運量統計表"
"營運日","星期","總 運 量"
"92/6/1","日","435,158"
"92/6/2","一","701,404"
"92/6/3","二","732,698"
"92/6/4","三","428,768"
"92/6/5","四","728,462"
"92/6/6","五","784,805"
"92/6/7","六","554,453"
"92/6/8","日","470,434"
"92/6/9","一","741,966"
"92/6/10","二","744,250"
"92/6/11","三","737,268"
"92/6/12","四","749,312"
"92/6/13","五","794,363"
"92/6/14","六","579,012"
"92/6/15","日","493,611"
"92/6/16","一","726,030"
"92/6/17","二","747,630"
"92/6/18","三","743,680"
"92/6/19","四","756,156"
"92/6/20","五","794,517"
"92/6/21","六","622,630"
"92/6/22","日","550,169"
"92/6/23","一","763,345"
"92/6/24","二","733,969"
"92/6/25","三","775,205"
"92/6/26","四","753,203"
"92/6/27","五","877,135"
"92/6/28","六","723,134"
"92/6/29","日","613,544"
"92/6/30","一","857,237"
"","",""
"當月總計","20,713,548"
"日平均","690,452"
"","","單位：人次"
"","",""
""
"","",""

