"臺北捷運公司運量統計表"
"營運日","星期","總 運 量"
"92/11/1","六","929,575"
"92/11/2","日","723,449"
"92/11/3","一","906,638"
"92/11/4","二","922,322"
"92/11/5","三","943,525"
"92/11/6","四","963,588"
"92/11/7","五","1,037,782"
"92/11/8","六","956,345"
"92/11/9","日","778,922"
"92/11/10","一","947,840"
"92/11/11","二","952,583"
"92/11/12","三","953,392"
"92/11/13","四","963,710"
"92/11/14","五","1,092,234"
"92/11/15","六","1,041,972"
"92/11/16","日","796,139"
"92/11/17","一","970,385"
"92/11/18","二","951,844"
"92/11/19","三","956,024"
"92/11/20","四","961,502"
"92/11/21","五","1,048,144"
"92/11/22","六","940,227"
"92/11/23","日","816,661"
"92/11/24","一","945,941"
"92/11/25","二","939,279"
"92/11/26","三","973,106"
"92/11/27","四","965,553"
"92/11/28","五","1,059,277"
"92/11/29","六","944,104"
"92/11/30","日","807,439"
"","",""
"當月總計","28,189,502"
"日平均","939,650"
"","","單位：人次"
"","",""
""
"","",""

