"臺北捷運公司運量統計表"
"營運日","星期","總 運 量"
"93/1/1","四","784,286"
"93/1/2","五","1,003,674"
"93/1/3","六","864,871"
"93/1/4","日","706,563"
"93/1/5","一","926,905"
"93/1/6","二","944,222"
"93/1/7","三","942,708"
"93/1/8","四","944,994"
"93/1/9","五","1,039,473"
"93/1/10","六","913,044"
"93/1/11","日","674,438"
"93/1/12","一","956,627"
"93/1/13","二","916,679"
"93/1/14","三","983,866"
"93/1/15","四","964,183"
"93/1/16","五","1,126,349"
"93/1/17","六","869,324"
"93/1/18","日","730,255"
"93/1/19","一","927,384"
"93/1/20","二","796,487"
"93/1/21","三","299,717"
"93/1/22","四","545,545"
"93/1/23","五","435,664"
"93/1/24","六","708,276"
"93/1/25","日","773,859"
"93/1/26","一","826,392"
"93/1/27","二","909,999"
"93/1/28","三","978,192"
"93/1/29","四","998,877"
"93/1/30","五","1,102,730"
"93/1/31","六","1,020,118"
"","",""
"當月總計","26,615,701"
"日平均","858,571"
"","","單位：人次"
"","",""
""
"","",""

