"臺北捷運公司運量統計表"
"營運日","星期","總 運 量"
"93/3/1","一","950,988"
"93/3/2","二","967,774"
"93/3/3","三","995,679"
"93/3/4","四","975,173"
"93/3/5","五","1,069,974"
"93/3/6","六","911,278"
"93/3/7","日","795,086"
"93/3/8","一","971,558"
"93/3/9","二","980,821"
"93/3/10","三","998,326"
"93/3/11","四","989,474"
"93/3/12","五","1,066,777"
"93/3/13","六","1,121,354"
"93/3/14","日","793,984"
"93/3/15","一","966,592"
"93/3/16","二","975,187"
"93/3/17","三","985,444"
"93/3/18","四","976,488"
"93/3/19","五","1,081,569"
"93/3/20","六","690,516"
"93/3/21","日","734,225"
"93/3/22","一","1,025,041"
"93/3/23","二","1,032,186"
"93/3/24","三","1,058,206"
"93/3/25","四","1,039,450"
"93/3/26","五","1,168,543"
"93/3/27","六","1,141,562"
"93/3/28","日","825,722"
"93/3/29","一","981,823"
"93/3/30","二","970,251"
"93/3/31","三","982,434"
"","",""
"當月總計","30,223,485"
"日平均","974,951"
"","","單位：人次"
"","",""
""
"","",""

