"臺北捷運公司運量統計表"
"營運日","星期","總 運 量"
"93/7/1","四","949,323"
"93/7/2","五","902,228"
"93/7/3","六","824,052"
"93/7/4","日","744,057"
"93/7/5","一","997,758"
"93/7/6","二","1,012,410"
"93/7/7","三","1,019,775"
"93/7/8","四","1,000,682"
"93/7/9","五","1,075,968"
"93/7/10","六","965,865"
"93/7/11","日","829,167"
"93/7/12","一","1,017,624"
"93/7/13","二","1,037,072"
"93/7/14","三","1,042,116"
"93/7/15","四","1,026,876"
"93/7/16","五","1,059,144"
"93/7/17","六","939,236"
"93/7/18","日","808,103"
"93/7/19","一","983,941"
"93/7/20","二","1,017,149"
"93/7/21","三","1,024,563"
"93/7/22","四","1,017,113"
"93/7/23","五","1,068,623"
"93/7/24","六","995,264"
"93/7/25","日","831,263"
"93/7/26","一","976,347"
"93/7/27","二","996,767"
"93/7/28","三","1,009,029"
"93/7/29","四","1,019,269"
"93/7/30","五","1,067,543"
"93/7/31","六","975,221"
"當月總計","30,233,548"
"日平均","975,276"
"","","單位：人次"
"","",""
""
"","",""

