"臺北捷運公司運量統計表"
"營運日","星期","總 運 量"
"93/8/1","日","819,691"
"93/8/2","一","970,260"
"93/8/3","二","979,523"
"93/8/4","三","996,829"
"93/8/5","四","1,004,076"
"93/8/6","五","1,067,462"
"93/8/7","六","945,115"
"93/8/8","日","735,723"
"93/8/9","一","997,879"
"93/8/10","二","1,013,989"
"93/8/11","三","1,010,399"
"93/8/12","四","893,430"
"93/8/13","五","1,091,466"
"93/8/14","六","959,700"
"93/8/15","日","864,203"
"93/8/16","一","1,003,072"
"93/8/17","二","997,781"
"93/8/18","三","1,026,979"
"93/8/19","四","1,001,778"
"93/8/20","五","1,030,663"
"93/8/21","六","939,904"
"93/8/22","日","855,998"
"93/8/23","一","971,133"
"93/8/24","二","165,502"
"93/8/25","三","254,647"
"93/8/26","四","1,032,356"
"93/8/27","五","1,082,664"
"93/8/28","六","903,279"
"93/8/29","日","707,398"
"93/8/30","一","923,718"
"93/8/31","二","972,598"
"當月總計","28,219,215"
"日平均","910,297"
"","","單位：人次"
"","",""
""
"","",""

