"臺北捷運公司運量統計表",""
"營運日","星期","總 運 量",""
"93/9/1","三","987,819",""
"93/9/2","四","979,881",""
"93/9/3","五","1,042,788",""
"93/9/4","六","904,956",""
"93/9/5","日","703,435",""
"93/9/6","一","965,465",""
"93/9/7","二","984,099",""
"93/9/8","三","1,004,715",""
"93/9/9","四","987,490",""
"93/9/10","五","1,072,757",""
"93/9/11","六","716,911",""
"93/9/12","日","605,524",""
"93/9/13","一","1,013,222",""
"93/9/14","二","1,022,093",""
"93/9/15","三","1,015,039",""
"93/9/16","四","1,034,507",""
"93/9/17","五","1,117,145",""
"93/9/18","六","1,033,668",""
"93/9/19","日","846,165",""
"93/9/20","一","1,001,269",""
"93/9/21","二","1,002,623",""
"93/9/22","三","1,013,626",""
"93/9/23","四","1,028,493",""
"93/9/24","五","1,126,676",""
"93/9/25","六","916,434",""
"93/9/26","日","712,901",""
"93/9/27","一","1,041,085",""
"93/9/28","二","698,927",""
"93/9/29","三","1,019,086",""
"93/9/30","四","1,010,883",""
"當月總計","28,609,682",""
"日平均","953,656",""
"","","單位：人次",""
"","","",""
"",""
"","","",""
"","","",""

