"臺北捷運公司運量統計表"
"營運日","星期","總 運 量"
"93/11/1","一","997,219"
"93/11/2","二","989,393"
"93/11/3","三","1,009,612"
"93/11/4","四","1,003,208"
"93/11/5","五","1,105,089"
"93/11/6","六","1,025,918"
"93/11/7","日","843,361"
"93/11/8","一","982,230"
"93/11/9","二","982,528"
"93/11/10","三","1,005,886"
"93/11/11","四","1,037,262"
"93/11/12","五","1,136,989"
"93/11/13","六","1,068,153"
"93/11/14","日","870,810"
"93/11/15","一","999,518"
"93/11/16","二","1,002,484"
"93/11/17","三","1,029,170"
"93/11/18","四","1,025,356"
"93/11/19","五","1,147,637"
"93/11/20","六","1,063,078"
"93/11/21","日","890,549"
"93/11/22","一","1,021,559"
"93/11/23","二","994,003"
"93/11/24","三","1,007,782"
"93/11/25","四","1,005,425"
"93/11/26","五","1,098,318"
"93/11/27","六","955,936"
"93/11/28","日","825,845"
"93/11/29","一","993,419"
"93/11/30","二","1,007,070"
"當月總計","30,124,807"
"日平均","1,004,160"
"","","單位：人次"
"","",""
""
"","",""

