"臺北捷運公司運量統計表"
"營運日","星期","總 運 量"
"94/1/1","六","863,490"
"94/1/2","日","714,861"
"94/1/3","一","980,320"
"94/1/4","二","980,261"
"94/1/5","三","1,002,797"
"94/1/6","四","1,000,437"
"94/1/7","五","1,088,225"
"94/1/8","六","930,292"
"94/1/9","日","744,219"
"94/1/10","一","979,387"
"94/1/11","二","975,701"
"94/1/12","三","991,813"
"94/1/13","四","972,362"
"94/1/14","五","1,101,311"
"94/1/15","六","886,883"
"94/1/16","日","733,122"
"94/1/17","一","981,849"
"94/1/18","二","946,134"
"94/1/19","三","1,043,245"
"94/1/20","四","1,082,346"
"94/1/21","五","1,103,472"
"94/1/22","六","959,556"
"94/1/23","日","817,729"
"94/1/24","一","1,007,132"
"94/1/25","二","1,026,131"
"94/1/26","三","1,021,685"
"94/1/27","四","1,019,264"
"94/1/28","五","1,084,998"
"94/1/29","六","947,841"
"94/1/30","日","786,376"
"94/1/31","一","1,038,642"
"當月總計","29,811,881"
"日平均","961,674"
"","","單位：人次"
"","",""
""
"","",""

