"臺北捷運公司運量統計表"
"營運日","星期","總 運 量"
"94/3/1","二","1,036,649"
"94/3/2","三","1,068,377"
"94/3/3","四","1,055,015"
"94/3/4","五","1,134,891"
"94/3/5","六","1,005,361"
"94/3/6","日","851,350"
"94/3/7","一","1,025,704"
"94/3/8","二","1,033,255"
"94/3/9","三","1,039,596"
"94/3/10","四","1,035,608"
"94/3/11","五","1,129,182"
"94/3/12","六","931,598"
"94/3/13","日","786,520"
"94/3/14","一","1,026,523"
"94/3/15","二","1,030,159"
"94/3/16","三","1,047,040"
"94/3/17","四","1,035,145"
"94/3/18","五","1,118,715"
"94/3/19","六","1,069,491"
"94/3/20","日","906,773"
"94/3/21","一","1,011,457"
"94/3/22","二","1,021,304"
"94/3/23","三","1,040,400"
"94/3/24","四","1,036,775"
"94/3/25","五","1,172,746"
"94/3/26","六","1,177,102"
"94/3/27","日","881,137"
"94/3/28","一","1,017,768"
"94/3/29","二","1,025,243"
"94/3/30","三","1,056,363"
"94/3/31","四","1,059,619"
"當月總計","31,866,866"
"日平均","1,027,963"
"","","單位：人次"
"","",""
""
"","",""

