"臺北捷運公司運量統計表"
"營運日","星期","總 運 量"
"94/4/1","五","1,142,037"
"94/4/2","六","950,030"
"94/4/3","日","872,846"
"94/4/4","一","1,033,454"
"94/4/5","二","735,760"
"94/4/6","三","1,032,363"
"94/4/7","四","1,020,740"
"94/4/8","五","1,113,502"
"94/4/9","六","1,010,493"
"94/4/10","日","828,419"
"94/4/11","一","985,801"
"94/4/12","二","992,822"
"94/4/13","三","1,009,198"
"94/4/14","四","1,001,619"
"94/4/15","五","1,103,321"
"94/4/16","六","1,025,334"
"94/4/17","日","802,816"
"94/4/18","一","977,745"
"94/4/19","二","989,133"
"94/4/20","三","1,001,173"
"94/4/21","四","993,528"
"94/4/22","五","1,097,415"
"94/4/23","六","963,586"
"94/4/24","日","806,299"
"94/4/25","一","983,621"
"94/4/26","二","1,001,379"
"94/4/27","三","1,010,811"
"94/4/28","四","994,890"
"94/4/29","五","1,100,882"
"94/4/30","六","995,224"
"當月總計","29,576,241"
"日平均","985,875"
"","","單位：人次"
"","",""
""
"","",""

