"臺北捷運公司運量統計表"
"營運日","星期","總 運 量"
"94/5/1","日","840,784"
"94/5/2","一","907,017"
"94/5/3","二","1,013,499"
"94/5/4","三","1,023,027"
"94/5/5","四","1,030,857"
"94/5/6","五","1,120,237"
"94/5/7","六","962,834"
"94/5/8","日","744,235"
"94/5/9","一","998,897"
"94/5/10","二","1,005,734"
"94/5/11","三","1,023,167"
"94/5/12","四","987,805"
"94/5/13","五","1,111,662"
"94/5/14","六","921,705"
"94/5/15","日","760,290"
"94/5/16","一","1,000,800"
"94/5/17","二","1,001,166"
"94/5/18","三","1,007,152"
"94/5/19","四","998,674"
"94/5/20","五","1,117,852"
"94/5/21","六","1,032,366"
"94/5/22","日","848,640"
"94/5/23","一","981,043"
"94/5/24","二","974,642"
"94/5/25","三","1,008,722"
"94/5/26","四","998,357"
"94/5/27","五","1,107,555"
"94/5/28","六","943,530"
"94/5/29","日","811,237"
"94/5/30","一","984,975"
"94/5/31","二","983,165"
"當月總計","30,251,626"
"日平均","975,859"
"","","單位：人次"
"","",""
""
"","",""

