"臺北捷運公司運量統計表"
"營運日","星期","總 運 量"
"94/6/1","三","1,002,079"
"94/6/2","四","1,000,094"
"94/6/3","五","1,072,445"
"94/6/4","六","1,018,773"
"94/6/5","日","837,897"
"94/6/6","一","991,599"
"94/6/7","二","999,010"
"94/6/8","三","1,008,210"
"94/6/9","四","1,010,627"
"94/6/10","五","1,105,165"
"94/6/11","六","757,911"
"94/6/12","日","757,627"
"94/6/13","一","970,451"
"94/6/14","二","982,315"
"94/6/15","三","995,555"
"94/6/16","四","983,977"
"94/6/17","五","1,082,487"
"94/6/18","六","941,347"
"94/6/19","日","740,809"
"94/6/20","一","978,857"
"94/6/21","二","983,747"
"94/6/22","三","994,405"
"94/6/23","四","965,571"
"94/6/24","五","1,069,866"
"94/6/25","六","950,769"
"94/6/26","日","761,120"
"94/6/27","一","973,109"
"94/6/28","二","970,295"
"94/6/29","三","1,039,124"
"94/6/30","四","1,084,620"
"當月總計","29,029,861"
"日平均","967,662"
"","","單位：人次"
"","",""
""
"","",""

