"臺北捷運公司運量統計表"
"營運日","星期","總 運 量"
"94/9/1","四","275,848"
"94/9/2","五","1,089,491"
"94/9/3","六","944,817"
"94/9/4","日","816,747"
"94/9/5","一","1,031,867"
"94/9/6","二","1,044,499"
"94/9/7","三","1,050,416"
"94/9/8","四","1,044,274"
"94/9/9","五","1,116,854"
"94/9/10","六","877,908"
"94/9/11","日","722,672"
"94/9/12","一","1,024,178"
"94/9/13","二","1,042,218"
"94/9/14","三","1,063,313"
"94/9/15","四","1,049,111"
"94/9/16","五","1,144,362"
"94/9/17","六","925,094"
"94/9/18","日","707,075"
"94/9/19","一","1,025,683"
"94/9/20","二","1,036,181"
"94/9/21","三","1,045,901"
"94/9/22","四","1,030,485"
"94/9/23","五","1,138,763"
"94/9/24","六","1,035,761"
"94/9/25","日","849,327"
"94/9/26","一","1,017,795"
"94/9/27","二","1,030,274"
"94/9/28","三","1,046,751"
"94/9/29","四","1,033,539"
"94/9/30","五","1,147,705"
"當月總計","29,408,909"
"日平均","980,297"
"","","單位：人次"
"","",""
""
"","",""

