"臺北捷運公司運量統計表"
"營運日","星期","總 運 量"
"95/3/1","三","1,044,101"
"95/3/2","四","1,039,587"
"95/3/3","五","1,137,350"
"95/3/4","六","1,041,228"
"95/3/5","日","840,770"
"95/3/6","一","1,027,038"
"95/3/7","二","1,038,838"
"95/3/8","三","1,057,360"
"95/3/9","四","1,049,628"
"95/3/10","五","1,157,088"
"95/3/11","六","1,080,611"
"95/3/12","日","805,580"
"95/3/13","一","1,029,942"
"95/3/14","二","1,042,560"
"95/3/15","三","1,052,838"
"95/3/16","四","1,047,632"
"95/3/17","五","1,147,826"
"95/3/18","六","1,067,487"
"95/3/19","日","803,766"
"95/3/20","一","1,003,093"
"95/3/21","二","1,031,728"
"95/3/22","三","1,049,775"
"95/3/23","四","1,039,295"
"95/3/24","五","1,175,877"
"95/3/25","六","994,685"
"95/3/26","日","772,855"
"95/3/27","一","1,037,606"
"95/3/28","二","1,060,042"
"95/3/29","三","1,066,976"
"95/3/30","四","1,045,397"
"95/3/31","五","1,147,445"
"當月總計","31,936,004"
"日平均","1,030,194"
"","","單位：人次"
"","",""
""
"","",""

