"臺北捷運公司運量統計表"
"營運日","星期","總 運 量"
"95/6/1","四","1,077,904"
"95/6/2","五","1,175,648"
"95/6/3","六","1,066,646"
"95/6/4","日","793,241"
"95/6/5","一","1,056,536"
"95/6/6","二","1,073,818"
"95/6/7","三","1,107,911"
"95/6/8","四","1,090,112"
"95/6/9","五","1,196,354"
"95/6/10","六","1,001,958"
"95/6/11","日","896,703"
"95/6/12","一","1,052,905"
"95/6/13","二","1,067,882"
"95/6/14","三","1,084,361"
"95/6/15","四","1,079,237"
"95/6/16","五","1,170,047"
"95/6/17","六","1,035,545"
"95/6/18","日","844,082"
"95/6/19","一","1,024,178"
"95/6/20","二","1,042,151"
"95/6/21","三","1,072,441"
"95/6/22","四","1,050,627"
"95/6/23","五","1,167,953"
"95/6/24","六","999,564"
"95/6/25","日","811,473"
"95/6/26","一","1,048,488"
"95/6/27","二","1,036,409"
"95/6/28","三","1,080,904"
"95/6/29","四","1,069,233"
"95/6/30","五","1,219,005"
"當月總計","31,493,316"
"日平均","1,049,777"
"","","單位：人次"
"","",""
""
"","",""

