"臺北捷運公司運量統計表"
"營運日","星期","總 運 量"
"95/8/1","二","1,102,853"
"95/8/2","三","1,117,239"
"95/8/3","四","1,110,841"
"95/8/4","五","1,174,965"
"95/8/5","六","1,023,155"
"95/8/6","日","838,998"
"95/8/7","一","1,078,827"
"95/8/8","二","1,012,259"
"95/8/9","三","1,110,113"
"95/8/10","四","1,068,317"
"95/8/11","五","1,207,332"
"95/8/12","六","1,109,094"
"95/8/13","日","942,458"
"95/8/14","一","1,132,405"
"95/8/15","二","1,162,535"
"95/8/16","三","1,147,105"
"95/8/17","四","1,134,751"
"95/8/18","五","1,172,181"
"95/8/19","六","1,077,825"
"95/8/20","日","920,967"
"95/8/21","一","1,110,133"
"95/8/22","二","1,094,195"
"95/8/23","三","1,121,860"
"95/8/24","四","1,131,182"
"95/8/25","五","1,200,830"
"95/8/26","六","1,114,740"
"95/8/27","日","842,886"
"95/8/28","一","1,096,697"
"95/8/29","二","1,078,443"
"95/8/30","三","1,091,681"
"95/8/31","四","1,079,134"
"當月總計","33,606,001"
"日平均","1,084,065"
"","","單位：人次"
"","",""
""
"","",""

