"臺北捷運公司運量統計表"
"營運日","星期","總 運 量"
"95/9/1","五","1,152,172"
"95/9/2","六","1,038,965"
"95/9/3","日","823,857"
"95/9/4","一","1,064,643"
"95/9/5","二","1,095,343"
"95/9/6","三","1,103,575"
"95/9/7","四","1,106,078"
"95/9/8","五","1,183,387"
"95/9/9","六","1,164,120"
"95/9/10","日","750,671"
"95/9/11","一","1,167,985"
"95/9/12","二","1,155,698"
"95/9/13","三","1,165,087"
"95/9/14","四","1,174,517"
"95/9/15","五","1,511,309"
"95/9/16","六","1,027,266"
"95/9/17","日","868,394"
"95/9/18","一","1,124,879"
"95/9/19","二","1,117,882"
"95/9/20","三","1,128,965"
"95/9/21","四","1,123,051"
"95/9/22","五","1,234,524"
"95/9/23","六","1,102,126"
"95/9/24","日","894,517"
"95/9/25","一","1,102,228"
"95/9/26","二","1,118,409"
"95/9/27","三","1,135,613"
"95/9/28","四","1,129,042"
"95/9/29","五","1,223,077"
"95/9/30","六","1,083,429"
"當月總計","33,070,809"
"日平均","1,102,360"
"","","單位：人次"
"","",""
""
"","",""

