"臺北捷運公司運量統計表"
"營運日","星期","總 運 量"
"95/12/1","五","1,231,184"
"95/12/2","六","1,131,454"
"95/12/3","日","976,619"
"95/12/4","一","1,096,689"
"95/12/5","二","1,118,442"
"95/12/6","三","1,148,072"
"95/12/7","四","1,138,237"
"95/12/8","五","1,281,032"
"95/12/9","六","1,192,090"
"95/12/10","日","951,355"
"95/12/11","一","1,096,801"
"95/12/12","二","1,123,469"
"95/12/13","三","1,130,355"
"95/12/14","四","1,127,502"
"95/12/15","五","1,260,319"
"95/12/16","六","1,083,932"
"95/12/17","日","962,117"
"95/12/18","一","1,115,761"
"95/12/19","二","1,138,281"
"95/12/20","三","1,161,669"
"95/12/21","四","1,156,308"
"95/12/22","五","1,259,953"
"95/12/23","六","1,191,897"
"95/12/24","日","1,033,580"
"95/12/25","一","1,156,411"
"95/12/26","二","1,148,801"
"95/12/27","三","1,154,456"
"95/12/28","四","1,163,830"
"95/12/29","五","1,288,915"
"95/12/30","六","1,141,820"
"95/12/31","日","1,576,361"
"當月總計","35,737,712"
"日平均","1,152,829"
"","","單位：人次"
"註:95/12/31日因跨年延長營運,該日總運量1,576,361人次為統計至96/01/01日
  06:00 ,另統計至96/01/01日 03:00 為1,520,701人次"
""
"","",""

