"臺北捷運公司運量統計表"
"營運日","星期","總 運 量"
"96/2/1","四","1,190,674"
"96/2/2","五","1,243,603"
"96/2/3","六","1,133,456"
"96/2/4","日","973,226"
"96/2/5","一","1,143,314"
"96/2/6","二","1,195,584"
"96/2/7","三","1,213,947"
"96/2/8","四","1,225,430"
"96/2/9","五","1,278,548"
"96/2/10","六","1,123,964"
"96/2/11","日","961,865"
"96/2/12","一","1,204,907"
"96/2/13","二","1,220,596"
"96/2/14","三","1,248,969"
"96/2/15","四","1,152,113"
"96/2/16","五","1,012,768"
"96/2/17","六","373,253"
"96/2/18","日","701,342"
"96/2/19","一","679,374"
"96/2/20","二","817,850"
"96/2/21","三","945,785"
"96/2/22","四","991,950"
"96/2/23","五","1,107,013"
"96/2/24","六","1,072,311"
"96/2/25","日","822,921"
"96/2/26","一","1,141,128"
"96/2/27","二","1,212,256"
"96/2/28","三","1,047,994"
"當月總計","29,436,141"
"日平均","1,051,291"
"","","單位：人次"
"","",""
""
"","",""

