"臺北捷運公司運量統計表"
"營運日","星期","總 運 量"
"96/5/1","二","1,042,259"
"96/5/2","三","1,143,318"
"96/5/3","四","1,156,308"
"96/5/4","五","1,272,880"
"96/5/5","六","1,081,174"
"96/5/6","日","975,898"
"96/5/7","一","1,147,009"
"96/5/8","二","1,145,176"
"96/5/9","三","1,164,454"
"96/5/10","四","1,166,079"
"96/5/11","五","1,288,306"
"96/5/12","六","1,138,491"
"96/5/13","日","869,947"
"96/5/14","一","1,116,763"
"96/5/15","二","1,129,293"
"96/5/16","三","1,146,783"
"96/5/17","四","1,145,160"
"96/5/18","五","1,263,990"
"96/5/19","六","1,193,956"
"96/5/20","日","919,951"
"96/5/21","一","1,114,831"
"96/5/22","二","1,130,777"
"96/5/23","三","1,135,338"
"96/5/24","四","1,156,746"
"96/5/25","五","1,277,892"
"96/5/26","六","1,130,021"
"96/5/27","日","983,316"
"96/5/28","一","1,105,280"
"96/5/29","二","1,122,818"
"96/5/30","三","1,133,884"
"96/5/31","四","1,126,862"
"當月總計","34,924,960"
"日平均","1,126,612"
"","","單位：人次"
"","",""
""
"","",""

