"臺北捷運公司運量統計表"
"營運日","星期","總 運 量"
"96/8/1","三","1,188,522"
"96/8/2","四","1,181,567"
"96/8/3","五","1,262,411"
"96/8/4","六","1,073,562"
"96/8/5","日","991,170"
"96/8/6","一","1,193,326"
"96/8/7","二","1,123,869"
"96/8/8","三","1,106,054"
"96/8/9","四","1,188,644"
"96/8/10","五","1,287,626"
"96/8/11","六","1,173,271"
"96/8/12","日","896,371"
"96/8/13","一","1,172,766"
"96/8/14","二","1,189,229"
"96/8/15","三","1,229,850"
"96/8/16","四","1,263,360"
"96/8/17","五","1,050,364"
"96/8/18","六","231,498"
"96/8/19","日","931,070"
"96/8/20","一","1,193,713"
"96/8/21","二","1,213,201"
"96/8/22","三","1,200,065"
"96/8/23","四","1,206,206"
"96/8/24","五","1,303,682"
"96/8/25","六","1,148,444"
"96/8/26","日","934,810"
"96/8/27","一","1,114,414"
"96/8/28","二","1,209,702"
"96/8/29","三","1,173,731"
"96/8/30","四","1,161,639"
"96/8/31","五","1,233,902"
"當月總計","34,828,039"
"日平均","1,123,485"
"","","單位：人次"
"","",""
""
"","",""

