"臺北捷運公司運量統計表"
"營運日","星期","總 運 量"
"96/9/1","六","1,068,367"
"96/9/2","日","885,936"
"96/9/3","一","1,135,534"
"96/9/4","二","1,148,755"
"96/9/5","三","1,172,809"
"96/9/6","四","1,186,974"
"96/9/7","五","1,262,508"
"96/9/8","六","1,161,986"
"96/9/9","日","981,152"
"96/9/10","一","1,159,387"
"96/9/11","二","1,181,892"
"96/9/12","三","1,199,162"
"96/9/13","四","1,192,580"
"96/9/14","五","1,285,130"
"96/9/15","六","1,212,274"
"96/9/16","日","987,233"
"96/9/17","一","1,161,430"
"96/9/18","二","317,810"
"96/9/19","三","1,234,899"
"96/9/20","四","1,235,112"
"96/9/21","五","1,339,495"
"96/9/22","六","980,018"
"96/9/23","日","910,796"
"96/9/24","一","926,671"
"96/9/25","二","783,620"
"96/9/26","三","1,197,845"
"96/9/27","四","1,200,028"
"96/9/28","五","1,272,233"
"96/9/29","六","1,257,397"
"96/9/30","日","971,511"
"當月總計","33,010,544"
"日平均","1,100,351"
"","","單位：人次"
"","",""
""
"","",""

