"臺北捷運公司運量統計表"
"營運日","星期","總 運 量"
"96/11/1","四","1,206,311"
"96/11/2","五","1,326,579"
"96/11/3","六","1,201,287"
"96/11/4","日","966,576"
"96/11/5","一","1,188,526"
"96/11/6","二","1,208,594"
"96/11/7","三","1,231,276"
"96/11/8","四","1,260,448"
"96/11/9","五","1,367,635"
"96/11/10","六","1,246,040"
"96/11/11","日","1,040,220"
"96/11/12","一","1,233,452"
"96/11/13","二","1,225,951"
"96/11/14","三","1,240,456"
"96/11/15","四","1,239,187"
"96/11/16","五","1,394,139"
"96/11/17","六","1,259,632"
"96/11/18","日","999,517"
"96/11/19","一","1,222,870"
"96/11/20","二","1,207,584"
"96/11/21","三","1,217,655"
"96/11/22","四","1,230,140"
"96/11/23","五","1,359,990"
"96/11/24","六","1,179,084"
"96/11/25","日","970,806"
"96/11/26","一","1,173,227"
"96/11/27","二","1,179,490"
"96/11/28","三","1,234,438"
"96/11/29","四","1,242,252"
"96/11/30","五","1,388,468"
"當月總計","36,441,830"
"日平均","1,214,728"
"","","單位：人次"
"","",""
""
"","",""

