"臺北捷運公司運量統計表"
"營運日","星期","總 運 量"
"96/12/1","六","1,249,100"
"96/12/2","日","1,120,841"
"96/12/3","一","1,199,083"
"96/12/4","二","1,218,455"
"96/12/5","三","1,246,718"
"96/12/6","四","1,268,611"
"96/12/7","五","1,386,078"
"96/12/8","六","1,325,029"
"96/12/9","日","1,111,214"
"96/12/10","一","1,209,098"
"96/12/11","二","1,227,777"
"96/12/12","三","1,247,965"
"96/12/13","四","1,234,063"
"96/12/14","五","1,376,638"
"96/12/15","六","1,312,297"
"96/12/16","日","1,122,229"
"96/12/17","一","1,226,349"
"96/12/18","二","1,227,659"
"96/12/19","三","1,243,516"
"96/12/20","四","1,253,277"
"96/12/21","五","1,381,748"
"96/12/22","六","1,279,031"
"96/12/23","日","1,067,827"
"96/12/24","一","1,296,588"
"96/12/25","二","1,302,434"
"96/12/26","三","1,258,502"
"96/12/27","四","1,270,188"
"96/12/28","五","1,382,420"
"96/12/29","六","1,208,084"
"96/12/30","日","1,045,317"
"96/12/31","一","1,929,780"
"當月總計","39,227,916"
"日平均","1,265,417"
"","","單位：人次"
"註:96/12/31日因跨年延長營運,該日總運量1,929,780人次為統計至97/01/01日
  06:00"
""
"","",""

