"臺北捷運公司運量統計表"
"營運日","星期","總 運 量"
"97/1/1","二","922,765"
"97/1/2","三","1,216,913"
"97/1/3","四","1,218,696"
"97/1/4","五","1,313,893"
"97/1/5","六","1,116,750"
"97/1/6","日","956,065"
"97/1/7","一","1,184,010"
"97/1/8","二","1,197,152"
"97/1/9","三","1,204,229"
"97/1/10","四","1,207,821"
"97/1/11","五","1,318,837"
"97/1/12","六","1,028,716"
"97/1/13","日","839,412"
"97/1/14","一","1,176,712"
"97/1/15","二","1,185,069"
"97/1/16","三","1,199,039"
"97/1/17","四","1,238,873"
"97/1/18","五","1,452,771"
"97/1/19","六","1,229,638"
"97/1/20","日","1,046,673"
"97/1/21","一","1,226,450"
"97/1/22","二","1,242,129"
"97/1/23","三","1,256,041"
"97/1/24","四","1,253,298"
"97/1/25","五","1,338,533"
"97/1/26","六","1,151,959"
"97/1/27","日","1,026,814"
"97/1/28","一","1,245,279"
"97/1/29","二","1,280,010"
"97/1/30","三","1,277,479"
"97/1/31","四","1,273,561"
"當月總計","36,825,587"
"日平均","1,187,922"
"","","單位：人次"
"","",""
""
"","",""

