"臺北捷運公司運量統計表"
"營運日","星期","總 運 量"
"97/3/1","六","1,241,360"
"97/3/2","日","1,049,851"
"97/3/3","一","1,214,717"
"97/3/4","二","1,236,174"
"97/3/5","三","1,257,113"
"97/3/6","四","1,259,247"
"97/3/7","五","1,375,287"
"97/3/8","六","1,285,494"
"97/3/9","日","1,050,963"
"97/3/10","一","1,231,125"
"97/3/11","二","1,249,686"
"97/3/12","三","1,264,399"
"97/3/13","四","1,265,492"
"97/3/14","五","1,379,525"
"97/3/15","六","1,294,018"
"97/3/16","日","1,146,145"
"97/3/17","一","1,222,200"
"97/3/18","二","1,243,984"
"97/3/19","三","1,287,395"
"97/3/20","四","1,305,302"
"97/3/21","五","1,488,912"
"97/3/22","六","1,068,638"
"97/3/23","日","972,046"
"97/3/24","一","1,265,336"
"97/3/25","二","1,275,780"
"97/3/26","三","1,305,852"
"97/3/27","四","1,275,783"
"97/3/28","五","1,400,141"
"97/3/29","六","1,314,278"
"97/3/30","日","985,355"
"97/3/31","一","1,220,997"
"當月總計","38,432,595"
"日平均","1,239,761"
"","","單位：人次"
"","",""
""
"","",""

