"臺北捷運公司運量統計表"
"營運日","星期","總 運 量"
"97/5/1","四","1,136,497"
"97/5/2","五","1,336,775"
"97/5/3","六","1,231,993"
"97/5/4","日","1,039,676"
"97/5/5","一","1,219,893"
"97/5/6","二","1,237,690"
"97/5/7","三","1,253,103"
"97/5/8","四","1,275,147"
"97/5/9","五","1,387,411"
"97/5/10","六","1,157,812"
"97/5/11","日","992,186"
"97/5/12","一","1,239,290"
"97/5/13","二","1,239,561"
"97/5/14","三","1,256,584"
"97/5/15","四","1,263,821"
"97/5/16","五","1,397,209"
"97/5/17","六","1,342,858"
"97/5/18","日","1,124,473"
"97/5/19","一","1,201,523"
"97/5/20","二","1,231,292"
"97/5/21","三","1,234,819"
"97/5/22","四","1,231,392"
"97/5/23","五","1,367,354"
"97/5/24","六","1,207,365"
"97/5/25","日","1,014,609"
"97/5/26","一","1,204,293"
"97/5/27","二","1,216,411"
"97/5/28","三","1,254,938"
"97/5/29","四","1,244,338"
"97/5/30","五","1,346,915"
"97/5/31","六","1,209,008"
"當月總計","38,096,236"
"日平均","1,228,911"
"","","單位：人次"
"","",""
""
"","",""

