"臺北捷運公司運量統計表"
"營運日","星期","總 運 量"
"97/9/1","一","1,224,764"
"97/9/2","二","1,265,875"
"97/9/3","三","1,295,818"
"97/9/4","四","1,280,473"
"97/9/5","五","1,375,141"
"97/9/6","六","1,237,990"
"97/9/7","日","1,051,628"
"97/9/8","一","1,268,816"
"97/9/9","二","1,284,348"
"97/9/10","三","1,315,212"
"97/9/11","四","1,318,776"
"97/9/12","五","1,334,488"
"97/9/13","六","261,907"
"97/9/14","日","469,868"
"97/9/15","一","1,285,127"
"97/9/16","二","1,318,927"
"97/9/17","三","1,328,800"
"97/9/18","四","1,317,027"
"97/9/19","五","1,437,416"
"97/9/20","六","1,353,717"
"97/9/21","日","1,092,612"
"97/9/22","一","1,268,130"
"97/9/23","二","1,257,937"
"97/9/24","三","1,286,457"
"97/9/25","四","1,296,624"
"97/9/26","五","1,425,430"
"97/9/27","六","1,206,320"
"97/9/28","日","227,616"
"97/9/29","一","550,869"
"97/9/30","二","1,306,850"
"","",""
"當月總計","34,944,963"
"日平均","1,164,832"
"","","單位：人次"
"","",""
""
"","",""

