"臺北捷運公司運量統計表"
"營運日","星期","總 運 量"
"97/12/1","一","1,233,141"
"97/12/2","二","1,256,383"
"97/12/3","三","1,282,735"
"97/12/4","四","1,288,861"
"97/12/5","五","1,434,546"
"97/12/6","六","1,251,320"
"97/12/7","日","1,131,044"
"97/12/8","一","1,252,212"
"97/12/9","二","1,259,845"
"97/12/10","三","1,291,271"
"97/12/11","四","1,286,036"
"97/12/12","五","1,421,401"
"97/12/13","六","1,295,999"
"97/12/14","日","998,821"
"97/12/15","一","1,255,088"
"97/12/16","二","1,262,607"
"97/12/17","三","1,283,812"
"97/12/18","四","1,290,306"
"97/12/19","五","1,419,474"
"97/12/20","六","1,260,799"
"97/12/21","日","1,039,608"
"97/12/22","一","1,281,359"
"97/12/23","二","1,299,434"
"97/12/24","三","1,350,144"
"97/12/25","四","1,347,284"
"97/12/26","五","1,424,932"
"97/12/27","六","1,200,216"
"97/12/28","日","969,453"
"97/12/29","一","1,286,204"
"97/12/30","二","1,344,755"
"97/12/31","三","1,950,822"
"當月總計","39,949,912"
"日平均","1,288,707"
"","","單位：人次"
"","",""
""
"","",""

