"臺北捷運公司運量統計表"
"營運日","星期","總 運 量"
"98/1/1","四","1,036,385"
"98/1/2","五","989,465"
"98/1/3","六","1,032,302"
"98/1/4","日","838,542"
"98/1/5","一","1,230,252"
"98/1/6","二","1,254,116"
"98/1/7","三","1,264,587"
"98/1/8","四","1,271,036"
"98/1/9","五","1,337,682"
"98/1/10","六","1,275,093"
"98/1/11","日","923,497"
"98/1/12","一","1,213,404"
"98/1/13","二","1,232,231"
"98/1/14","三","1,248,216"
"98/1/15","四","1,263,602"
"98/1/16","五","1,355,329"
"98/1/17","六","1,365,483"
"98/1/18","日","1,037,556"
"98/1/19","一","1,382,163"
"98/1/20","二","1,368,575"
"98/1/21","三","1,364,459"
"98/1/22","四","1,366,716"
"98/1/23","五","1,289,366"
"98/1/24","六","789,625"
"98/1/25","日","406,227"
"98/1/26","一","696,608"
"98/1/27","二","752,810"
"98/1/28","三","1,003,911"
"98/1/29","四","1,040,741"
"98/1/30","五","957,597"
"98/1/31","六","1,183,631"
"當月總計","34,771,207"
"日平均","1,121,652"
"","","單位：人次"
"","",""
""
"","",""

