"臺北捷運公司運量統計表"
"營運日","星期","總 運 量"
"98/6/1","一","1,212,636"
"98/6/2","二","1,233,039"
"98/6/3","三","1,262,452"
"98/6/4","四","1,237,011"
"98/6/5","五","1,366,814"
"98/6/6","六","1,342,361"
"98/6/7","日","1,009,312"
"98/6/8","一","1,231,200"
"98/6/9","二","1,253,540"
"98/6/10","三","1,280,855"
"98/6/11","四","1,268,072"
"98/6/12","五","1,375,625"
"98/6/13","六","1,143,359"
"98/6/14","日","923,530"
"98/6/15","一","1,205,789"
"98/6/16","二","1,237,212"
"98/6/17","三","1,262,768"
"98/6/18","四","1,252,859"
"98/6/19","五","1,367,481"
"98/6/20","六","1,077,674"
"98/6/21","日","890,573"
"98/6/22","一","1,209,596"
"98/6/23","二","1,246,811"
"98/6/24","三","1,258,257"
"98/6/25","四","1,261,442"
"98/6/26","五","1,369,594"
"98/6/27","六","1,139,354"
"98/6/28","日","983,748"
"98/6/29","一","1,286,510"
"98/6/30","二","1,362,380"
"","",""
"當月總計","36,551,854"
"日平均","1,218,395"
"","","單位：人次"
"","",""
""
"","",""

