"臺北捷運公司運量統計表"
"營運日","星期","總 運 量"
"98/12/1","二","1,327,215"
"98/12/2","三","1,354,909"
"98/12/3","四","1,354,316"
"98/12/4","五","1,515,688"
"98/12/5","六","1,366,981"
"98/12/6","日","1,259,101"
"98/12/7","一","1,323,993"
"98/12/8","二","1,353,314"
"98/12/9","三","1,362,348"
"98/12/10","四","1,370,977"
"98/12/11","五","1,539,444"
"98/12/12","六","1,446,878"
"98/12/13","日","1,242,542"
"98/12/14","一","1,330,030"
"98/12/15","二","1,365,822"
"98/12/16","三","1,389,724"
"98/12/17","四","1,399,459"
"98/12/18","五","1,539,392"
"98/12/19","六","1,385,484"
"98/12/20","日","1,135,012"
"98/12/21","一","1,359,313"
"98/12/22","二","1,383,651"
"98/12/23","三","1,435,395"
"98/12/24","四","1,478,937"
"98/12/25","五","1,638,096"
"98/12/26","六","1,434,705"
"98/12/27","日","1,158,671"
"98/12/28","一","1,403,015"
"98/12/29","二","1,428,485"
"98/12/30","三","1,464,836"
"98/12/31","四","2,168,321"
"當月總計","43,716,054"
"日平均","1,410,195"
"","","單位：人次"
"","",""
""
"","",""

