"臺北捷運公司運量統計表"
"營運日","星期","總 運 量"
"99/3/1","一","1,354,137"
"99/3/2","二","1,376,201"
"99/3/3","三","1,399,594"
"99/3/4","四","1,382,732"
"99/3/5","五","1,554,425"
"99/3/6","六","1,536,837"
"99/3/7","日","1,187,637"
"99/3/8","一","1,359,400"
"99/3/9","二","1,371,892"
"99/3/10","三","1,390,049"
"99/3/11","四","1,399,948"
"99/3/12","五","1,543,523"
"99/3/13","六","1,341,829"
"99/3/14","日","1,229,547"
"99/3/15","一","1,353,155"
"99/3/16","二","1,366,230"
"99/3/17","三","1,391,004"
"99/3/18","四","1,425,382"
"99/3/19","五","1,564,155"
"99/3/20","六","1,461,220"
"99/3/21","日","1,164,794"
"99/3/22","一","1,342,225"
"99/3/23","二","1,377,195"
"99/3/24","三","1,363,752"
"99/3/25","四","1,387,220"
"99/3/26","五","1,523,440"
"99/3/27","六","1,385,573"
"99/3/28","日","1,141,350"
"99/3/29","一","1,351,459"
"99/3/30","二","1,367,476"
"99/3/31","三","1,396,868"
"當月總計","42,790,249"
"日平均","1,380,331"
"","","單位：人次"
"","",""
""
"","",""

