"臺北捷運公司運量統計表"
"營運日","星期","總 運 量"
"99/4/1","四","1,400,981"
"99/4/2","五","1,536,206"
"99/4/3","六","1,251,922"
"99/4/4","日","1,122,950"
"99/4/5","一","978,586"
"99/4/6","二","1,367,052"
"99/4/7","三","1,386,891"
"99/4/8","四","1,396,022"
"99/4/9","五","1,524,369"
"99/4/10","六","1,459,705"
"99/4/11","日","1,185,500"
"99/4/12","一","1,353,720"
"99/4/13","二","1,360,834"
"99/4/14","三","1,381,080"
"99/4/15","四","1,377,287"
"99/4/16","五","1,491,317"
"99/4/17","六","1,375,116"
"99/4/18","日","1,089,292"
"99/4/19","一","1,300,939"
"99/4/20","二","1,327,932"
"99/4/21","三","1,349,466"
"99/4/22","四","1,353,627"
"99/4/23","五","1,492,010"
"99/4/24","六","1,333,392"
"99/4/25","日","1,141,513"
"99/4/26","一","1,311,182"
"99/4/27","二","1,333,718"
"99/4/28","三","1,366,954"
"99/4/29","四","1,373,421"
"99/4/30","五","1,528,870"
"當月總計","40,251,854"
"日平均","1,341,728"
"","","單位：人次"
"","",""
""
"","",""

