"臺北捷運公司運量統計表"
"營運日","星期","總 運 量"
"99/5/1","六","1,404,681"
"99/5/2","日","1,178,790"
"99/5/3","一","1,345,115"
"99/5/4","二","1,358,920"
"99/5/5","三","1,381,435"
"99/5/6","四","1,370,572"
"99/5/7","五","1,527,099"
"99/5/8","六","1,297,591"
"99/5/9","日","1,022,155"
"99/5/10","一","1,357,994"
"99/5/11","二","1,337,611"
"99/5/12","三","1,377,712"
"99/5/13","四","1,364,258"
"99/5/14","五","1,495,354"
"99/5/15","六","1,397,537"
"99/5/16","日","1,210,554"
"99/5/17","一","1,323,609"
"99/5/18","二","1,345,746"
"99/5/19","三","1,362,736"
"99/5/20","四","1,369,952"
"99/5/21","五","1,580,746"
"99/5/22","六","1,410,271"
"99/5/23","日","1,072,237"
"99/5/24","一","1,342,097"
"99/5/25","二","1,351,400"
"99/5/26","三","1,363,962"
"99/5/27","四","1,347,310"
"99/5/28","五","1,483,482"
"99/5/29","六","1,269,218"
"99/5/30","日","1,090,451"
"99/5/31","一","1,333,335"
"當月總計","41,473,930"
"日平均","1,337,869"
"","","單位：人次"
"","",""
""
"","",""

