"臺北捷運公司運量統計表"
"營運日","星期","總 運 量"
"99/6/1","二","1,352,436"
"99/6/2","三","1,378,027"
"99/6/3","四","1,397,268"
"99/6/4","五","1,534,883"
"99/6/5","六","1,344,172"
"99/6/6","日","1,095,145"
"99/6/7","一","1,336,805"
"99/6/8","二","1,358,349"
"99/6/9","三","1,375,127"
"99/6/10","四","1,378,181"
"99/6/11","五","1,509,540"
"99/6/12","六","1,275,483"
"99/6/13","日","1,016,233"
"99/6/14","一","1,334,652"
"99/6/15","二","1,428,091"
"99/6/16","三","936,267"
"99/6/17","四","1,388,217"
"99/6/18","五","1,476,035"
"99/6/19","六","1,263,609"
"99/6/20","日","1,027,242"
"99/6/21","一","1,282,958"
"99/6/22","二","1,332,010"
"99/6/23","三","1,353,469"
"99/6/24","四","1,378,073"
"99/6/25","五","1,492,208"
"99/6/26","六","1,312,098"
"99/6/27","日","1,009,725"
"99/6/28","一","1,348,506"
"99/6/29","二","1,371,167"
"99/6/30","三","1,393,934"
"當月總計","39,479,910"
"日平均","1,315,997"
"","","單位：人次"
"","",""
""
"","",""

