"臺北捷運公司運量統計表"
"營運日","星期","總 運 量"
"99/10/1","五","1,568,109"
"99/10/2","六","1,399,524"
"99/10/3","日","1,137,329"
"99/10/4","一","1,374,159"
"99/10/5","二","1,404,769"
"99/10/6","三","1,434,902"
"99/10/7","四","1,467,079"
"99/10/8","五","1,592,683"
"99/10/9","六","1,405,348"
"99/10/10","日","1,344,207"
"99/10/11","一","1,393,591"
"99/10/12","二","1,438,474"
"99/10/13","三","1,441,433"
"99/10/14","四","1,438,972"
"99/10/15","五","1,593,549"
"99/10/16","六","1,415,939"
"99/10/17","日","1,240,747"
"99/10/18","一","1,380,754"
"99/10/19","二","1,400,291"
"99/10/20","三","1,438,159"
"99/10/21","四","1,403,832"
"99/10/22","五","1,535,379"
"99/10/23","六","1,392,783"
"99/10/24","日","1,194,353"
"99/10/25","一","1,407,745"
"99/10/26","二","1,432,696"
"99/10/27","三","1,440,322"
"99/10/28","四","1,457,384"
"99/10/29","五","1,568,149"
"99/10/30","六","1,405,044"
"99/10/31","日","1,179,917"
"當月總計","43,727,622"
"日平均","1,410,568"
"","","單位：人次"
"","",""
""
"","",""

